single/out/mips_wave.vcd
$date
	Wed Dec 17 23:21:13 2025
$end
$version
	ModelSim Version 10.6c
$end
$timescale
	1ps
$end

$scope module mips_tb $end
$var reg 1 ! clk $end
$var reg 1 " rst $end
$var integer 32 # cycle_count $end
$var integer 32 $ pass_count $end
$var integer 32 % fail_count $end
$var wire 1 & pc [31] $end
$var wire 1 ' pc [30] $end
$var wire 1 ( pc [29] $end
$var wire 1 ) pc [28] $end
$var wire 1 * pc [27] $end
$var wire 1 + pc [26] $end
$var wire 1 , pc [25] $end
$var wire 1 - pc [24] $end
$var wire 1 . pc [23] $end
$var wire 1 / pc [22] $end
$var wire 1 0 pc [21] $end
$var wire 1 1 pc [20] $end
$var wire 1 2 pc [19] $end
$var wire 1 3 pc [18] $end
$var wire 1 4 pc [17] $end
$var wire 1 5 pc [16] $end
$var wire 1 6 pc [15] $end
$var wire 1 7 pc [14] $end
$var wire 1 8 pc [13] $end
$var wire 1 9 pc [12] $end
$var wire 1 : pc [11] $end
$var wire 1 ; pc [10] $end
$var wire 1 < pc [9] $end
$var wire 1 = pc [8] $end
$var wire 1 > pc [7] $end
$var wire 1 ? pc [6] $end
$var wire 1 @ pc [5] $end
$var wire 1 A pc [4] $end
$var wire 1 B pc [3] $end
$var wire 1 C pc [2] $end
$var wire 1 D pc [1] $end
$var wire 1 E pc [0] $end
$var wire 1 F zf $end
$var wire 1 G alu_out [31] $end
$var wire 1 H alu_out [30] $end
$var wire 1 I alu_out [29] $end
$var wire 1 J alu_out [28] $end
$var wire 1 K alu_out [27] $end
$var wire 1 L alu_out [26] $end
$var wire 1 M alu_out [25] $end
$var wire 1 N alu_out [24] $end
$var wire 1 O alu_out [23] $end
$var wire 1 P alu_out [22] $end
$var wire 1 Q alu_out [21] $end
$var wire 1 R alu_out [20] $end
$var wire 1 S alu_out [19] $end
$var wire 1 T alu_out [18] $end
$var wire 1 U alu_out [17] $end
$var wire 1 V alu_out [16] $end
$var wire 1 W alu_out [15] $end
$var wire 1 X alu_out [14] $end
$var wire 1 Y alu_out [13] $end
$var wire 1 Z alu_out [12] $end
$var wire 1 [ alu_out [11] $end
$var wire 1 \ alu_out [10] $end
$var wire 1 ] alu_out [9] $end
$var wire 1 ^ alu_out [8] $end
$var wire 1 _ alu_out [7] $end
$var wire 1 ` alu_out [6] $end
$var wire 1 a alu_out [5] $end
$var wire 1 b alu_out [4] $end
$var wire 1 c alu_out [3] $end
$var wire 1 d alu_out [2] $end
$var wire 1 e alu_out [1] $end
$var wire 1 f alu_out [0] $end
$var wire 1 g RegDst $end
$var wire 1 h Jump $end
$var wire 1 i Branch $end
$var wire 1 j MemRead $end
$var wire 1 k MemtoReg $end
$var wire 1 l ALUOp [1] $end
$var wire 1 m ALUOp [0] $end
$var wire 1 n MemWrite $end
$var wire 1 o ALUSrc $end
$var wire 1 p RegWrite $end
$var wire 1 q inst [31] $end
$var wire 1 r inst [30] $end
$var wire 1 s inst [29] $end
$var wire 1 t inst [28] $end
$var wire 1 u inst [27] $end
$var wire 1 v inst [26] $end
$var wire 1 w inst [25] $end
$var wire 1 x inst [24] $end
$var wire 1 y inst [23] $end
$var wire 1 z inst [22] $end
$var wire 1 { inst [21] $end
$var wire 1 | inst [20] $end
$var wire 1 } inst [19] $end
$var wire 1 ~ inst [18] $end
$var wire 1 !! inst [17] $end
$var wire 1 "! inst [16] $end
$var wire 1 #! inst [15] $end
$var wire 1 $! inst [14] $end
$var wire 1 %! inst [13] $end
$var wire 1 &! inst [12] $end
$var wire 1 '! inst [11] $end
$var wire 1 (! inst [10] $end
$var wire 1 )! inst [9] $end
$var wire 1 *! inst [8] $end
$var wire 1 +! inst [7] $end
$var wire 1 ,! inst [6] $end
$var wire 1 -! inst [5] $end
$var wire 1 .! inst [4] $end
$var wire 1 /! inst [3] $end
$var wire 1 0! inst [2] $end
$var wire 1 1! inst [1] $end
$var wire 1 2! inst [0] $end
$var wire 1 3! W_data [31] $end
$var wire 1 4! W_data [30] $end
$var wire 1 5! W_data [29] $end
$var wire 1 6! W_data [28] $end
$var wire 1 7! W_data [27] $end
$var wire 1 8! W_data [26] $end
$var wire 1 9! W_data [25] $end
$var wire 1 :! W_data [24] $end
$var wire 1 ;! W_data [23] $end
$var wire 1 <! W_data [22] $end
$var wire 1 =! W_data [21] $end
$var wire 1 >! W_data [20] $end
$var wire 1 ?! W_data [19] $end
$var wire 1 @! W_data [18] $end
$var wire 1 A! W_data [17] $end
$var wire 1 B! W_data [16] $end
$var wire 1 C! W_data [15] $end
$var wire 1 D! W_data [14] $end
$var wire 1 E! W_data [13] $end
$var wire 1 F! W_data [12] $end
$var wire 1 G! W_data [11] $end
$var wire 1 H! W_data [10] $end
$var wire 1 I! W_data [9] $end
$var wire 1 J! W_data [8] $end
$var wire 1 K! W_data [7] $end
$var wire 1 L! W_data [6] $end
$var wire 1 M! W_data [5] $end
$var wire 1 N! W_data [4] $end
$var wire 1 O! W_data [3] $end
$var wire 1 P! W_data [2] $end
$var wire 1 Q! W_data [1] $end
$var wire 1 R! W_data [0] $end
$var wire 1 S! R_data [31] $end
$var wire 1 T! R_data [30] $end
$var wire 1 U! R_data [29] $end
$var wire 1 V! R_data [28] $end
$var wire 1 W! R_data [27] $end
$var wire 1 X! R_data [26] $end
$var wire 1 Y! R_data [25] $end
$var wire 1 Z! R_data [24] $end
$var wire 1 [! R_data [23] $end
$var wire 1 \! R_data [22] $end
$var wire 1 ]! R_data [21] $end
$var wire 1 ^! R_data [20] $end
$var wire 1 _! R_data [19] $end
$var wire 1 `! R_data [18] $end
$var wire 1 a! R_data [17] $end
$var wire 1 b! R_data [16] $end
$var wire 1 c! R_data [15] $end
$var wire 1 d! R_data [14] $end
$var wire 1 e! R_data [13] $end
$var wire 1 f! R_data [12] $end
$var wire 1 g! R_data [11] $end
$var wire 1 h! R_data [10] $end
$var wire 1 i! R_data [9] $end
$var wire 1 j! R_data [8] $end
$var wire 1 k! R_data [7] $end
$var wire 1 l! R_data [6] $end
$var wire 1 m! R_data [5] $end
$var wire 1 n! R_data [4] $end
$var wire 1 o! R_data [3] $end
$var wire 1 p! R_data [2] $end
$var wire 1 q! R_data [1] $end
$var wire 1 r! R_data [0] $end
$upscope $end
$enddefinitions $end
#0
$dumpvars
0!
1"
b0 #
b0 $
b0 %
0E
0D
0C
0B
0A
0@
0?
0>
0=
0<
0;
0:
09
08
07
06
05
04
03
02
01
00
0/
0.
0-
0,
0+
0*
0)
0(
0'
0&
zF
1f
1e
1d
1c
1b
1a
1`
1_
1^
1]
1\
1[
1Z
1Y
1X
1W
1V
1U
1T
1S
1R
1Q
1P
1O
1N
1M
1L
1K
1J
1I
1H
1G
1g
0h
0i
0j
0k
0m
1l
0n
0o
1p
12!
11!
10!
0/!
0.!
1-!
0,!
0+!
0*!
0)!
0(!
0'!
0&!
0%!
1$!
0#!
0"!
0!!
0~
0}
0|
0{
0z
0y
0x
0w
0v
0u
0t
0s
0r
0q
0R!
0Q!
0P!
0O!
0N!
0M!
0L!
0K!
0J!
0I!
0H!
0G!
0F!
0E!
0D!
0C!
0B!
0A!
0@!
0?!
0>!
0=!
0<!
0;!
0:!
09!
08!
07!
06!
05!
04!
03!
zr!
zq!
zp!
zo!
zn!
zm!
zl!
zk!
zj!
zi!
zh!
zg!
zf!
ze!
zd!
zc!
zb!
za!
z`!
z_!
z^!
z]!
z\!
z[!
zZ!
zY!
zX!
zW!
zV!
zU!
zT!
zS!
$end
#10000
1!
#20000
0"
0!
#30000
1!
b1 #
1C
02!
00!
0-!
1,!
1+!
1*!
1)!
1(!
1'!
1}
1R!
1Q!
1P!
1O!
1N!
1M!
1L!
1K!
1J!
1I!
1H!
1G!
1F!
1E!
1D!
1C!
1B!
1A!
1@!
1?!
1>!
1=!
1<!
1;!
1:!
19!
18!
17!
16!
15!
14!
13!
#40000
0!
#50000
1!
b10 #
0C
1B
01!
0,!
0+!
0*!
0)!
0(!
0'!
0$!
1"!
1v
1u
1s
1q
1n
0p
xg
xk
1o
0l
0f
0e
0d
0c
0b
0a
0`
0_
0^
0]
0\
0[
0Z
0Y
0X
0W
0V
0U
0T
0S
0R
0Q
0P
0O
0N
0M
0L
0K
0J
0I
0H
0G
#60000
0!
#70000
1!
b11 #
1C
0"!
1!!
0s
xR!
xQ!
xP!
xO!
xN!
xM!
xL!
xK!
xJ!
xI!
xH!
xG!
xF!
xE!
xD!
xC!
xB!
xA!
x@!
x?!
x>!
x=!
x<!
x;!
x:!
x9!
x8!
x7!
x6!
x5!
x4!
x3!
1j
0n
1p
0g
1k
1r!
1q!
1p!
1o!
1n!
1m!
1l!
1k!
1j!
1i!
1h!
1g!
1f!
1e!
1d!
1c!
1b!
1a!
1`!
1_!
1^!
1]!
1\!
1[!
1Z!
1Y!
1X!
1W!
1V!
1U!
1T!
1S!
#80000
0!
#90000
1!
b100 #
0C
0B
1A
1-!
1'!
1&!
1$!
1z
1x
0v
0u
0q
1R!
1Q!
1P!
1O!
1N!
1M!
1L!
1K!
1J!
1I!
1H!
1G!
1F!
1E!
1D!
1C!
1B!
1A!
1@!
1?!
1>!
1=!
1<!
1;!
1:!
19!
18!
17!
16!
15!
14!
13!
0j
1g
0k
0o
zr!
zq!
zp!
zo!
zn!
zm!
zl!
zk!
zj!
zi!
zh!
zg!
zf!
ze!
zd!
zc!
zb!
za!
z`!
z_!
z^!
z]!
z\!
z[!
zZ!
zY!
zX!
zW!
zV!
zU!
zT!
zS!
1l
1f
1e
1d
1c
1b
1a
1`
1_
1^
1]
1\
1[
1Z
1Y
1X
1W
1V
1U
1T
1S
1R
1Q
1P
1O
1N
1M
1L
1K
1J
1I
1H
1G
0a
0`
0_
0^
0]
0\
0Y
0W
0V
0U
0T
0S
0R
0Q
0P
0O
0N
0M
0L
0K
0J
0I
0H
0G
0f
1a
1`
1_
1^
1]
1\
1Y
1W
1V
1U
1T
1S
1R
1Q
1P
1O
1N
1M
1L
1K
1J
1I
1H
1G
#100000
0!
#110000
1!
b101 #
1C
12!
0'!
0&!
1%!
1{
1f
0e
#120000
0!
#130000
1!
b110 #
0C
1B
02!
11!
1'!
0{
0z
1y
0f
1e
#140000
0!
#150000
1!
b111 #
1C
12!
0'!
1&!
1"!
0R!
1f
#160000
0!
#170000
1!
b1000 #
0C
0B
0A
1@
02!
01!
10!
0-!
0&!
0%!
0$!
0y
0x
1v
1u
1s
1q
1n
0p
xg
xk
1o
0l
0f
0d
0c
0b
0a
0`
0_
0^
0]
0\
0[
0Z
0Y
0X
0W
0V
0U
0T
0S
0R
0Q
0P
0O
0N
0M
0L
0K
0J
0I
0H
0G
1d
1c
1b
1a
1`
1_
1^
1]
1\
1[
1Z
1Y
1X
1W
1V
1U
1T
1S
1R
1Q
1P
1O
1N
1M
1L
1K
1J
1I
1H
1G
0e
0c
0b
0a
0`
0_
0^
0]
0\
0[
0Z
0Y
0X
0W
0V
0U
0T
0S
0R
0Q
0P
0O
0N
0M
0L
0K
0J
0I
0H
0G
#180000
0!
#190000
1!
b1001 #
1C
00!
1/!
0"!
0!!
1~
1R!
0Q!
0d
1c
#200000
0!
#210000
1!
b1010 #
0C
1B
10!
0/!
1-!
1'!
1&!
1%!
1$!
1{
1z
1x
0v
0u
0s
0q
0n
1p
1g
0k
0o
1l
1e
1d
0c
0d
1a
1[
1Z
1Y
1X
0e
1d
1c
1b
1`
1_
1^
1]
1\
1W
1V
1U
1T
1S
1R
1Q
1P
1O
1N
1M
1L
1K
1J
1I
1H
1G
#220000
0!
#230000
1!
b1011 #
1C
12!
0'!
0&!
0%!
1#!
1f
1e
#240000
0!
#250000
1!
b1100 #
0C
0B
1A
02!
11!
1'!
0d
0c
0b
0a
0`
0_
0^
0]
0\
0[
0Z
0Y
0X
0W
0V
0U
0T
0S
0R
0Q
0P
0O
0N
0M
0L
0K
0J
0I
0H
0G
#260000
0!
#270000
1!
b1101 #
1C
12!
0'!
0$!
0f
0e
#280000
0!
#290000
1!
b1110 #
0C
1B
02!
01!
00!
0-!
1+!
1'!
1!!
0~
0{
0z
0x
1Q!
1e
1f
1d
1c
1b
1a
1`
1_
1^
1]
1\
1[
1Z
1Y
1X
1W
1V
1U
1T
1S
1R
1Q
1P
1O
1N
1M
1L
1K
1J
1I
1H
1G
#300000
0!
#310000
1!
b1111 #
1C
11!
0'!
1&!
0!!
0}
1|
0R!
0Q!
0P!
0O!
0N!
0M!
0L!
0K!
0J!
0I!
0H!
0G!
0F!
0E!
0D!
0C!
0B!
0A!
0@!
0?!
0>!
0=!
0<!
0;!
0:!
09!
08!
07!
06!
05!
04!
03!
0f
0e
0d
0c
0b
0a
0`
0_
0^
0]
0\
0[
0Z
0Y
0X
0W
0V
0U
0T
0S
0R
0Q
0P
0O
0N
0M
0L
0K
0J
0I
0H
0G
#320000
0!
#330000
1!
b10000 #
0C
0B
0A
0@
1?
1/!
1-!
0+!
1'!
0&!
1%!
1"!
1!!
1}
0|
1z
1x
1Q!
1P!
1O!
1N!
1M!
1L!
1K!
1J!
1I!
1H!
1G!
1F!
1E!
1D!
1C!
1B!
1A!
1@!
1?!
1>!
1=!
1<!
1;!
1:!
19!
18!
17!
16!
15!
14!
13!
#340000
0!
#350000
1!
b10001 #
1C
12!
0'!
1&!
#360000
0!
#370000
1!
b10010 #
0C
1B
01!
0/!
0-!
0&!
0%!
0#!
0"!
1t
1R!
1i
0p
xg
xk
1m
0l
1e
1d
1c
1b
1a
1`
1_
1^
1]
1\
1[
1Z
1Y
1X
1W
1V
1U
1T
1S
1R
1Q
1P
1O
1N
1M
1L
1K
1J
1I
1H
1G
0e
0d
0c
0b
0a
0`
0_
0^
0]
0\
0[
0Z
0Y
0X
0W
0V
0U
0T
0S
0R
0Q
0P
0O
0N
0M
0L
0K
0J
0I
0H
0G
#380000
0!
#390000
1!
b10011 #
0B
1A
02!
10!
1"!
0!!
1~
0}
0z
0x
1v
1u
0t
1q
xR!
xQ!
xP!
xO!
xN!
xM!
xL!
xK!
xJ!
xI!
xH!
xG!
xF!
xE!
xD!
xC!
xB!
xA!
x@!
x?!
x>!
x=!
x<!
x;!
x:!
x9!
x8!
x7!
x6!
x5!
x4!
x3!
0i
1j
1p
0g
1k
1o
1r!
1q!
1p!
1o!
1n!
1m!
1l!
1k!
1j!
1i!
1h!
1g!
1f!
1e!
1d!
1c!
1b!
1a!
1`!
1_!
1^!
1]!
1\!
1[!
1Z!
1Y!
1X!
1W!
1V!
1U!
1T!
1S!
0m
1f
0r!
0q!
0p!
0o!
0n!
0m!
0l!
0k!
0j!
0i!
0h!
0g!
0f!
0e!
0d!
0c!
0b!
0a!
0`!
0_!
0^!
0]!
0\!
0[!
0Z!
0Y!
0X!
0W!
0V!
0U!
0T!
0S!
xf
xe
xd
xc
xb
xa
x`
x_
x^
x]
x\
x[
xZ
xY
xX
xW
xV
xU
xT
xS
xR
xQ
xP
xO
xN
xM
xL
xK
xJ
xI
xH
xG
xr!
xq!
xp!
xo!
xn!
xm!
xl!
xk!
xj!
xi!
xh!
xg!
xf!
xe!
xd!
xc!
xb!
xa!
x`!
x_!
x^!
x]!
x\!
x[!
xZ!
xY!
xX!
xW!
xV!
xU!
xT!
xS!
0f
0e
1d
0c
0b
0a
0`
0_
0^
0]
0\
0[
0Z
0Y
0X
0W
0V
0U
0T
0S
0R
0Q
0P
0O
0N
0M
0L
0K
0J
0I
0H
0G
0r!
1q!
1p!
1o!
1n!
1m!
1l!
1k!
1j!
1i!
1h!
1g!
1f!
1e!
1d!
1c!
1b!
1a!
1`!
1_!
1^!
1]!
1\!
1[!
1Z!
1Y!
1X!
1W!
1V!
1U!
1T!
1S!
#400000
0!
#410000
1!
b10100 #
1C
12!
00!
1!!
0~
1}
1z
1x
0v
0u
1t
0q
0R!
1Q!
1P!
1O!
1N!
1M!
1L!
1K!
1J!
1I!
1H!
1G!
1F!
1E!
1D!
1C!
1B!
1A!
1@!
1?!
1>!
1=!
1<!
1;!
1:!
19!
18!
17!
16!
15!
14!
13!
1i
0j
0p
xg
xk
0o
zr!
zq!
zp!
zo!
zn!
zm!
zl!
zk!
zj!
zi!
zh!
zg!
zf!
ze!
zd!
zc!
zb!
za!
z`!
z_!
z^!
z]!
z\!
z[!
zZ!
zY!
zX!
zW!
zV!
zU!
zT!
zS!
1m
1f
1e
0d
0f
0e
1f
#420000
0!
#430000
1!
b10101 #
0C
1B
02!
1-!
1&!
1%!
0"!
0t
1R!
0i
1p
1g
0k
0m
1l
0f
1e
1d
1c
1b
1a
1`
1_
1^
1]
1\
1[
1Z
1Y
1X
1W
1V
1U
1T
1S
1R
1Q
1P
1O
1N
1M
1L
1K
1J
1I
1H
1G
#440000
0!
#450000
1!
b10110 #
1C
12!
1/!
1.!
0-!
0&!
0%!
0!!
0}
1|
0z
0x
1u
0R!
0Q!
0P!
0O!
0N!
0M!
0L!
0K!
0J!
0I!
0H!
0G!
0F!
0E!
0D!
0C!
0B!
0A!
0@!
0?!
0>!
0=!
0<!
0;!
0:!
09!
08!
07!
06!
05!
04!
03!
0p
xg
1h
xk
xo
xm
xl
1f
0f
0e
0d
0c
0b
0a
0`
0_
0^
0]
0\
0[
0Z
0Y
0X
0W
0V
0U
0T
0S
0R
0Q
0P
0O
0N
0M
0L
0K
0J
0I
0H
0G
#460000
0!
#470000
1!
b10111 #
0B
0A
1@
1/
02!
0/!
0.!
1-!
1$!
0|
1x
0u
1p
1g
0h
0k
0o
0m
1l
1f
1e
1d
1c
1b
1a
1`
1_
1^
1]
1\
1[
1Z
1Y
1X
1W
1V
1U
1T
1S
1R
1Q
1P
1O
1N
1M
1L
1K
1J
1I
1H
1G
#480000
0!
#490000
1!
b11000 #
0C
1B
0-!
0$!
1!!
1}
1|
0x
1v
1u
1q
xR!
xQ!
xP!
xO!
xN!
xM!
xL!
xK!
xJ!
xI!
xH!
xG!
xF!
xE!
xD!
xC!
xB!
xA!
x@!
x?!
x>!
x=!
x<!
x;!
x:!
x9!
x8!
x7!
x6!
x5!
x4!
x3!
1j
0g
1k
1o
xr!
xq!
xp!
xo!
xn!
xm!
xl!
xk!
xj!
xi!
xh!
xg!
xf!
xe!
xd!
xc!
xb!
xa!
x`!
x_!
x^!
x]!
x\!
x[!
xZ!
xY!
xX!
xW!
xV!
xU!
xT!
xS!
0l
0f
0e
0d
0c
0b
0a
0`
0_
0^
0]
0\
0[
0Z
0Y
0X
0W
0V
0U
0T
0S
0R
0Q
0P
0O
0N
0M
0L
0K
0J
0I
0H
0G
1r!
1q!
1p!
1o!
1n!
1m!
1l!
1k!
1j!
1i!
1h!
1g!
1f!
1e!
1d!
1c!
1b!
1a!
1`!
1_!
1^!
1]!
1\!
1[!
1Z!
1Y!
1X!
1W!
1V!
1U!
1T!
1S!
xf
xe
xd
xc
xb
xa
x`
x_
x^
x]
x\
x[
xZ
xY
xX
xW
xV
xU
xT
xS
xR
xQ
xP
xO
xN
xM
xL
xK
xJ
xI
xH
xG
xr!
xq!
xp!
xo!
xn!
xm!
xl!
xk!
xj!
xi!
xh!
xg!
xf!
xe!
xd!
xc!
xb!
xa!
x`!
x_!
x^!
x]!
x\!
x[!
xZ!
xY!
xX!
xW!
xV!
xU!
xT!
xS!
0f
0e
0d
0c
0b
0a
0`
0_
0^
0]
0\
0[
0Z
0Y
0X
0W
0V
0U
0T
0S
0R
0Q
0P
0O
0N
0M
0L
0K
0J
0I
0H
0G
1r!
1q!
1p!
1o!
1n!
1m!
1l!
1k!
1j!
1i!
1h!
1g!
1f!
1e!
1d!
1c!
1b!
1a!
1`!
1_!
1^!
1]!
1\!
1[!
1Z!
1Y!
1X!
1W!
1V!
1U!
1T!
1S!
#500000
0!
#510000
1!
b11001 #
1C
10!
1"!
1R!
1Q!
1P!
1O!
1N!
1M!
1L!
1K!
1J!
1I!
1H!
1G!
1F!
1E!
1D!
1C!
1B!
1A!
1@!
1?!
1>!
1=!
1<!
1;!
1:!
19!
18!
17!
16!
15!
14!
13!
xR!
xQ!
xP!
xO!
xN!
xM!
xL!
xK!
xJ!
xI!
xH!
xG!
xF!
xE!
xD!
xC!
xB!
xA!
x@!
x?!
x>!
x=!
x<!
x;!
x:!
x9!
x8!
x7!
x6!
x5!
x4!
x3!
1d
0r!
#520000
0!
#530000
1!
b11010 #
0C
0B
1A
00!
1-!
1'!
1z
1x
1w
0v
0u
0q
0R!
1Q!
1P!
1O!
1N!
1M!
1L!
1K!
1J!
1I!
1H!
1G!
1F!
1E!
1D!
1C!
1B!
1A!
1@!
1?!
1>!
1=!
1<!
1;!
1:!
19!
18!
17!
16!
15!
14!
13!
0j
1g
0k
0o
zr!
zq!
zp!
zo!
zn!
zm!
zl!
zk!
zj!
zi!
zh!
zg!
zf!
ze!
zd!
zc!
zb!
za!
z`!
z_!
z^!
z]!
z\!
z[!
zZ!
zY!
zX!
zW!
zV!
zU!
zT!
zS!
1l
1f
1e
0d
1d
1c
1b
1[
0e
1a
1`
1_
1^
1]
1\
1Z
1Y
1X
1W
1V
1U
1T
1S
1R
1Q
1P
1O
1N
1M
1L
1K
1J
1I
1H
1G
#540000
0!
#550000
1!
b11011 #
1C
12!
0-!
0'!
0"!
0!!
1~
0|
1{
0z
0x
0w
1t
1R!
0Q!
1i
0p
xg
xk
1m
0l
1e
0d
0f
0e
0c
0b
0a
0`
0_
0^
0]
0\
0[
0Z
0Y
0X
0W
0V
0U
0T
0S
0R
0Q
0P
0O
0N
0M
0L
0K
0J
0I
0H
0G
#560000
0!
#570000
1!
b11100 #
1B
02!
10!
1/!
1!!
0~
1|
0{
1v
1u
0t
1s
1q
1Q!
0i
1n
1o
0m
1f
1e
0e
0f
1d
1c
#580000
0!
#590000
1!
b11101 #
0C
0B
0A
0@
0?
1>
00!
0/!
1-!
0!!
0}
0v
0s
0q
0R!
0Q!
0P!
0O!
0N!
0M!
0L!
0K!
0J!
0I!
0H!
0G!
0F!
0E!
0D!
0C!
0B!
0A!
0@!
0?!
0>!
0=!
0<!
0;!
0:!
09!
08!
07!
06!
05!
04!
03!
0n
1h
xo
xm
xl
0d
0c
1a
#600000
0!
#610000
1!
b11110 #
#620000
0!
#630000
1!
b11111 #
#640000
0!
#650000
1!
b100000 #
#660000
0!
#670000
1!
b100001 #
#680000
0!
#690000
1!
b100010 #
#700000
0!
#710000
1!
b100011 #
#720000
0!
#730000
1!
b100100 #
#740000
0!
#750000
1!
b100101 #
#760000
0!
#770000
1!
b100110 #
#780000
0!
#790000
1!
b100111 #
#800000
0!
#810000
1!
b101000 #
#820000
0!
#830000
1!
b101001 #
#840000
0!
#850000
1!
b101010 #
#860000
0!
#870000
1!
b101011 #
#880000
0!
#890000
1!
b101100 #
#900000
0!
#910000
1!
b101101 #
#920000
0!
#930000
1!
b101110 #
#940000
0!
#950000
1!
b101111 #
#960000
0!
#970000
1!
b110000 #
#980000
0!
#990000
1!
b110001 #
#1000000
0!
#1010000
1!
b110010 #
#1020000
0!
#1030000
1!
b110011 #
#1040000
0!
#1050000
1!
b110100 #
#1060000
0!
#1070000
1!
b110101 #
#1080000
0!
#1090000
1!
b110110 #
#1100000
0!
#1110000
1!
b110111 #
#1120000
0!
#1130000
1!
b111000 #
#1140000
0!
#1150000
1!
b111001 #
#1160000
0!
#1170000
1!
b111010 #
#1180000
0!
#1190000
1!
b111011 #
#1200000
0!
#1210000
1!
b111100 #
#1220000
0!
#1230000
1!
b111101 #
#1240000
0!
#1250000
1!
b111110 #
#1260000
0!
#1270000
1!
b111111 #
#1280000
0!
#1290000
1!
b1000000 #
#1300000
0!
#1310000
1!
b1000001 #
#1320000
0!
#1330000
1!
b1000010 #
#1340000
0!
#1350000
1!
b1000011 #
#1360000
0!
#1370000
1!
b1000100 #
#1380000
0!
#1390000
1!
b1000101 #
#1400000
0!
#1410000
1!
b1000110 #
#1420000
0!
#1430000
1!
b1000111 #
#1440000
0!
#1450000
1!
b1001000 #
#1460000
0!
#1470000
1!
b1001001 #
#1480000
0!
#1490000
1!
b1001010 #
#1500000
0!
#1510000
1!
b1001011 #
#1520000
0!
#1530000
1!
b1001100 #
#1540000
0!
#1550000
1!
b1001101 #
#1560000
0!
#1570000
1!
b1001110 #
#1580000
0!
#1590000
1!
b1001111 #
#1600000
0!
#1610000
1!
b1010000 #
#1620000
0!
#1630000
1!
b1010001 #
#1640000
0!
#1650000
1!
b1010010 #
#1660000
0!
#1670000
1!
b1010011 #
#1680000
0!
#1690000
1!
b1010100 #
#1700000
0!
#1710000
1!
b1010101 #
#1720000
0!
#1730000
1!
b1010110 #
#1740000
0!
#1750000
1!
b1010111 #
#1760000
0!
#1770000
1!
b1011000 #
#1780000
0!
#1790000
1!
b1011001 #
#1800000
0!
#1810000
1!
b1011010 #
#1820000
0!
#1830000
1!
b1011011 #
#1840000
0!
#1850000
1!
b1011100 #
#1860000
0!
#1870000
1!
b1011101 #
#1880000
0!
#1890000
1!
b1011110 #
#1900000
0!
#1910000
1!
b1011111 #
#1920000
0!
#1930000
1!
b1100000 #
#1940000
0!
#1950000
1!
b1100001 #
#1960000
0!
#1970000
1!
b1100010 #
#1980000
0!
#1990000
1!
b1100011 #
#2000000
0!
#2010000
1!
b1100100 #
#2020000
b1 $
0!
#2030000
1!
b1100101 #
#2040000
0!
#2050000
1!
b1100110 #
#2060000
0!
#2070000
1!
b1100111 #
#2080000
0!
#2090000
1!
b1101000 #
#2100000
0!
#2110000
1!
b1101001 #
#2120000
$dumpoff
x!
x"
bx #
bx $
bx %
xE
xD
xC
xB
xA
x@
x?
x>
x=
x<
x;
x:
x9
x8
x7
x6
x5
x4
x3
x2
x1
x0
x/
x.
x-
x,
x+
x*
x)
x(
x'
x&
xF
xf
xe
xd
xc
xb
xa
x`
x_
x^
x]
x\
x[
xZ
xY
xX
xW
xV
xU
xT
xS
xR
xQ
xP
xO
xN
xM
xL
xK
xJ
xI
xH
xG
xg
xh
xi
xj
xk
xm
xl
xn
xo
xp
x2!
x1!
x0!
x/!
x.!
x-!
x,!
x+!
x*!
x)!
x(!
x'!
x&!
x%!
x$!
x#!
x"!
x!!
x~
x}
x|
x{
xz
xy
xx
xw
xv
xu
xt
xs
xr
xq
xR!
xQ!
xP!
xO!
xN!
xM!
xL!
xK!
xJ!
xI!
xH!
xG!
xF!
xE!
xD!
xC!
xB!
xA!
x@!
x?!
x>!
x=!
x<!
x;!
x:!
x9!
x8!
x7!
x6!
x5!
x4!
x3!
xr!
xq!
xp!
xo!
xn!
xm!
xl!
xk!
xj!
xi!
xh!
xg!
xf!
xe!
xd!
xc!
xb!
xa!
x`!
x_!
x^!
x]!
x\!
x[!
xZ!
xY!
xX!
xW!
xV!
xU!
xT!
xS!
$end
