single/out/mips_test.vcd
$date
	Fri Dec 19 19:03:59 2025
$end
$version
	ModelSim Version 10.6c
$end
$timescale
	1ps
$end

$scope module mips_tb $end
$var parameter 32 ! SUCCESS_JUMP $end
$var parameter 32 " FAIL_JUMP $end
$var reg 1 # clk $end
$var reg 1 $ rst $end
$var wire 1 % pc [31] $end
$var wire 1 & pc [30] $end
$var wire 1 ' pc [29] $end
$var wire 1 ( pc [28] $end
$var wire 1 ) pc [27] $end
$var wire 1 * pc [26] $end
$var wire 1 + pc [25] $end
$var wire 1 , pc [24] $end
$var wire 1 - pc [23] $end
$var wire 1 . pc [22] $end
$var wire 1 / pc [21] $end
$var wire 1 0 pc [20] $end
$var wire 1 1 pc [19] $end
$var wire 1 2 pc [18] $end
$var wire 1 3 pc [17] $end
$var wire 1 4 pc [16] $end
$var wire 1 5 pc [15] $end
$var wire 1 6 pc [14] $end
$var wire 1 7 pc [13] $end
$var wire 1 8 pc [12] $end
$var wire 1 9 pc [11] $end
$var wire 1 : pc [10] $end
$var wire 1 ; pc [9] $end
$var wire 1 < pc [8] $end
$var wire 1 = pc [7] $end
$var wire 1 > pc [6] $end
$var wire 1 ? pc [5] $end
$var wire 1 @ pc [4] $end
$var wire 1 A pc [3] $end
$var wire 1 B pc [2] $end
$var wire 1 C pc [1] $end
$var wire 1 D pc [0] $end
$var wire 1 E zf $end
$var wire 1 F alu_out [31] $end
$var wire 1 G alu_out [30] $end
$var wire 1 H alu_out [29] $end
$var wire 1 I alu_out [28] $end
$var wire 1 J alu_out [27] $end
$var wire 1 K alu_out [26] $end
$var wire 1 L alu_out [25] $end
$var wire 1 M alu_out [24] $end
$var wire 1 N alu_out [23] $end
$var wire 1 O alu_out [22] $end
$var wire 1 P alu_out [21] $end
$var wire 1 Q alu_out [20] $end
$var wire 1 R alu_out [19] $end
$var wire 1 S alu_out [18] $end
$var wire 1 T alu_out [17] $end
$var wire 1 U alu_out [16] $end
$var wire 1 V alu_out [15] $end
$var wire 1 W alu_out [14] $end
$var wire 1 X alu_out [13] $end
$var wire 1 Y alu_out [12] $end
$var wire 1 Z alu_out [11] $end
$var wire 1 [ alu_out [10] $end
$var wire 1 \ alu_out [9] $end
$var wire 1 ] alu_out [8] $end
$var wire 1 ^ alu_out [7] $end
$var wire 1 _ alu_out [6] $end
$var wire 1 ` alu_out [5] $end
$var wire 1 a alu_out [4] $end
$var wire 1 b alu_out [3] $end
$var wire 1 c alu_out [2] $end
$var wire 1 d alu_out [1] $end
$var wire 1 e alu_out [0] $end
$var wire 1 f RegDst $end
$var wire 1 g Jump $end
$var wire 1 h Branch $end
$var wire 1 i MemRead $end
$var wire 1 j MemtoReg $end
$var wire 1 k ALUOp [1] $end
$var wire 1 l ALUOp [0] $end
$var wire 1 m MemWrite $end
$var wire 1 n ALUSrc $end
$var wire 1 o RegWrite $end
$var wire 1 p inst [31] $end
$var wire 1 q inst [30] $end
$var wire 1 r inst [29] $end
$var wire 1 s inst [28] $end
$var wire 1 t inst [27] $end
$var wire 1 u inst [26] $end
$var wire 1 v inst [25] $end
$var wire 1 w inst [24] $end
$var wire 1 x inst [23] $end
$var wire 1 y inst [22] $end
$var wire 1 z inst [21] $end
$var wire 1 { inst [20] $end
$var wire 1 | inst [19] $end
$var wire 1 } inst [18] $end
$var wire 1 ~ inst [17] $end
$var wire 1 !! inst [16] $end
$var wire 1 "! inst [15] $end
$var wire 1 #! inst [14] $end
$var wire 1 $! inst [13] $end
$var wire 1 %! inst [12] $end
$var wire 1 &! inst [11] $end
$var wire 1 '! inst [10] $end
$var wire 1 (! inst [9] $end
$var wire 1 )! inst [8] $end
$var wire 1 *! inst [7] $end
$var wire 1 +! inst [6] $end
$var wire 1 ,! inst [5] $end
$var wire 1 -! inst [4] $end
$var wire 1 .! inst [3] $end
$var wire 1 /! inst [2] $end
$var wire 1 0! inst [1] $end
$var wire 1 1! inst [0] $end
$var wire 1 2! W_data [31] $end
$var wire 1 3! W_data [30] $end
$var wire 1 4! W_data [29] $end
$var wire 1 5! W_data [28] $end
$var wire 1 6! W_data [27] $end
$var wire 1 7! W_data [26] $end
$var wire 1 8! W_data [25] $end
$var wire 1 9! W_data [24] $end
$var wire 1 :! W_data [23] $end
$var wire 1 ;! W_data [22] $end
$var wire 1 <! W_data [21] $end
$var wire 1 =! W_data [20] $end
$var wire 1 >! W_data [19] $end
$var wire 1 ?! W_data [18] $end
$var wire 1 @! W_data [17] $end
$var wire 1 A! W_data [16] $end
$var wire 1 B! W_data [15] $end
$var wire 1 C! W_data [14] $end
$var wire 1 D! W_data [13] $end
$var wire 1 E! W_data [12] $end
$var wire 1 F! W_data [11] $end
$var wire 1 G! W_data [10] $end
$var wire 1 H! W_data [9] $end
$var wire 1 I! W_data [8] $end
$var wire 1 J! W_data [7] $end
$var wire 1 K! W_data [6] $end
$var wire 1 L! W_data [5] $end
$var wire 1 M! W_data [4] $end
$var wire 1 N! W_data [3] $end
$var wire 1 O! W_data [2] $end
$var wire 1 P! W_data [1] $end
$var wire 1 Q! W_data [0] $end
$var wire 1 R! R_data [31] $end
$var wire 1 S! R_data [30] $end
$var wire 1 T! R_data [29] $end
$var wire 1 U! R_data [28] $end
$var wire 1 V! R_data [27] $end
$var wire 1 W! R_data [26] $end
$var wire 1 X! R_data [25] $end
$var wire 1 Y! R_data [24] $end
$var wire 1 Z! R_data [23] $end
$var wire 1 [! R_data [22] $end
$var wire 1 \! R_data [21] $end
$var wire 1 ]! R_data [20] $end
$var wire 1 ^! R_data [19] $end
$var wire 1 _! R_data [18] $end
$var wire 1 `! R_data [17] $end
$var wire 1 a! R_data [16] $end
$var wire 1 b! R_data [15] $end
$var wire 1 c! R_data [14] $end
$var wire 1 d! R_data [13] $end
$var wire 1 e! R_data [12] $end
$var wire 1 f! R_data [11] $end
$var wire 1 g! R_data [10] $end
$var wire 1 h! R_data [9] $end
$var wire 1 i! R_data [8] $end
$var wire 1 j! R_data [7] $end
$var wire 1 k! R_data [6] $end
$var wire 1 l! R_data [5] $end
$var wire 1 m! R_data [4] $end
$var wire 1 n! R_data [3] $end
$var wire 1 o! R_data [2] $end
$var wire 1 p! R_data [1] $end
$var wire 1 q! R_data [0] $end
$var reg 32 r! inst_monitor [31:0] $end
$var reg 32 s! pc_monitor [31:0] $end
$var reg 32 t! alu_out_monitor [31:0] $end
$var integer 32 u! cycle_count $end
$var integer 32 v! test_result $end
$var integer 32 w! success_flag $end
$var integer 32 x! fail_flag $end
$var integer 32 y! same_inst_count $end
$var reg 32 z! last_inst [31:0] $end
$upscope $end
$enddefinitions $end
#0
$dumpvars
0#
1$
b0 r!
b0 s!
b0 t!
b0 z!
b1000000100000000000000101101 !
b1000000100000000000000110010 "
b0 u!
b0 v!
b0 w!
b0 x!
b0 y!
0D
0C
0B
0A
0@
0?
0>
0=
0<
0;
0:
09
08
07
06
05
04
03
02
01
00
0/
0.
0-
0,
0+
0*
0)
0(
0'
0&
0%
zE
1e
0d
1c
0b
0a
0`
0_
0^
0]
0\
0[
0Z
0Y
0X
0W
0V
0U
0T
0S
0R
0Q
0P
0O
0N
0M
0L
0K
0J
0I
0H
0G
0F
0f
0g
0h
0i
0j
1l
1k
0m
1n
1o
11!
00!
1/!
0.!
0-!
0,!
0+!
0*!
0)!
0(!
0'!
0&!
0%!
0$!
0#!
0"!
0!!
0~
0}
1|
0{
0z
0y
0x
0w
0v
0u
0t
0s
1r
0q
0p
xQ!
xP!
xO!
xN!
xM!
xL!
xK!
xJ!
xI!
xH!
xG!
xF!
xE!
xD!
xC!
xB!
xA!
x@!
x?!
x>!
x=!
x<!
x;!
x:!
x9!
x8!
x7!
x6!
x5!
x4!
x3!
x2!
zq!
zp!
zo!
zn!
zm!
zl!
zk!
zj!
zi!
zh!
zg!
zf!
ze!
zd!
zc!
zb!
za!
z`!
z_!
z^!
z]!
z\!
z[!
zZ!
zY!
zX!
zW!
zV!
zU!
zT!
zS!
zR!
$end
#10000
1#
b100000000010000000000000000101 r!
b101 t!
1Q!
0P!
1O!
0N!
0M!
0L!
0K!
0J!
0I!
0H!
0G!
0F!
0E!
0D!
0C!
0B!
0A!
0@!
0?!
0>!
0=!
0<!
0;!
0:!
09!
08!
07!
06!
05!
04!
03!
02!
#20000
0$
0#
#30000
1#
b1 u!
b100000000010000000000000000101 z!
1B
10!
0/!
1!!
xQ!
xP!
xO!
xN!
xM!
xL!
xK!
xJ!
xI!
xH!
xG!
xF!
xE!
xD!
xC!
xB!
xA!
x@!
x?!
x>!
x=!
x<!
x;!
x:!
x9!
x8!
x7!
x6!
x5!
x4!
x3!
x2!
1d
0c
#40000
0#
#50000
1#
b100000000010010000000000000011 r!
b100 s!
b11 t!
b10 u!
b1 y!
0B
1A
01!
00!
1,!
1%!
1#!
1w
0r
1Q!
1P!
0O!
0N!
0M!
0L!
0K!
0J!
0I!
0H!
0G!
0F!
0E!
0D!
0C!
0B!
0A!
0@!
0?!
0>!
0=!
0<!
0;!
0:!
09!
08!
07!
06!
05!
04!
03!
02!
1f
0n
0l
0e
0d
1b
1e
1c
0b
1`
1Y
1W
0e
0c
1b
0`
0Y
0W
#60000
0#
#70000
1#
b1000010010101000000100000 r!
b1000 s!
b1000 t!
b11 u!
b0 y!
b100000000010010000000000000011 z!
1B
10!
1&!
1d
0b
#80000
0#
#90000
1#
b1000010010101100000100010 r!
b1100 s!
b10 t!
b100 u!
b1000010010101000000100000 z!
0B
0A
1@
00!
1/!
0&!
0%!
1$!
1e
0d
#100000
0#
#110000
1#
b1000010010110000000100100 r!
b10000 s!
b1 t!
b101 u!
b1000010010101100000100010 z!
1B
11!
1&!
1d
1c
#120000
0#
#130000
1#
b1000010010110100000100101 r!
b10100 s!
b111 t!
b110 u!
b1000010010110000000100100 z!
0B
1A
01!
10!
0&!
1%!
0e
#140000
0#
#150000
1#
b1000010010111000000100110 r!
b11000 s!
b110 t!
b111 u!
b1000010010110100000100101 z!
1B
00!
0/!
1.!
0,!
0%!
0$!
0#!
0!!
0|
1{
0w
1r
xQ!
xP!
xO!
xN!
xM!
xL!
xK!
xJ!
xI!
xH!
xG!
xF!
xE!
xD!
xC!
xB!
xA!
x@!
x?!
x>!
x=!
x<!
x;!
x:!
x9!
x8!
x7!
x6!
x5!
x4!
x3!
x2!
0f
1n
1l
1e
0c
xe
xd
xc
xb
xa
x`
x_
x^
x]
x\
x[
xZ
xY
xX
xW
xV
xU
xT
xS
xR
xQ
xP
xO
xN
xM
xL
xK
xJ
xI
xH
xG
xF
0e
0d
0c
1b
0a
0`
0_
0^
0]
0\
0[
0Z
0Y
0X
0W
0V
0U
0T
0S
0R
0Q
0P
0O
0N
0M
0L
0K
0J
0I
0H
0G
0F
#160000
0#
#170000
1#
b100000000100000000000000001000 r!
b11100 s!
b1000 t!
b1000 u!
b1000010010111000000100110 z!
0B
0A
0@
1?
11!
0.!
1y
1w
1s
0r
0Q!
0P!
0O!
1N!
0M!
0L!
0K!
0J!
0I!
0H!
0G!
0F!
0E!
0D!
0C!
0B!
0A!
0@!
0?!
0>!
0=!
0<!
0;!
0:!
09!
08!
07!
06!
05!
04!
03!
02!
1h
0o
xf
xj
0n
0k
0b
1a
1e
1b
0a
0e
0b
#180000
0#
#190000
1#
b10001010100000000000000000001 r!
b100000 s!
b0 t!
b1001 u!
b100000000100000000000000001000 z!
1A
01!
10!
1!!
0y
0w
0s
1r
xQ!
xP!
xO!
xN!
xM!
xL!
xK!
xJ!
xI!
xH!
xG!
xF!
xE!
xD!
xC!
xB!
xA!
x@!
x?!
x>!
x=!
x<!
x;!
x:!
x9!
x8!
x7!
x6!
x5!
x4!
x3!
x2!
0h
1o
0f
0j
1n
1k
1b
1a
1`
1_
1^
1]
1\
1[
1Z
1Y
1X
1W
1V
1U
1T
1S
1R
1Q
1P
1O
1N
1M
1L
1K
1J
1I
1H
1G
1F
xe
xd
xc
xb
xa
x`
x_
x^
x]
x\
x[
xZ
xY
xX
xW
xV
xU
xT
xS
xR
xQ
xP
xO
xN
xM
xL
xK
xJ
xI
xH
xG
xF
0e
1d
0c
0b
0a
0`
0_
0^
0]
0\
0[
0Z
0Y
0X
0W
0V
0U
0T
0S
0R
0Q
0P
0O
0N
0M
0L
0K
0J
0I
0H
0G
0F
#200000
0#
#210000
1#
b100000000100010000000000000010 r!
b101000 s!
b10 t!
b1010 u!
b10001010100000000000000000001 z!
1B
11!
00!
1z
1y
1w
1s
0r
0Q!
1P!
0O!
0N!
0M!
0L!
0K!
0J!
0I!
0H!
0G!
0F!
0E!
0D!
0C!
0B!
0A!
0@!
0?!
0>!
0=!
0<!
0;!
0:!
09!
08!
07!
06!
05!
04!
03!
02!
1h
0o
xf
xj
0n
0k
0d
1c
1e
1d
0c
0e
0d
#220000
0#
#230000
1#
b10001011100010000000000000001 r!
b101100 s!
b0 t!
b1011 u!
b100000000100010000000000000010 z!
0A
1@
0!!
1~
0z
0y
0w
0s
1r
xQ!
xP!
xO!
xN!
xM!
xL!
xK!
xJ!
xI!
xH!
xG!
xF!
xE!
xD!
xC!
xB!
xA!
x@!
x?!
x>!
x=!
x<!
x;!
x:!
x9!
x8!
x7!
x6!
x5!
x4!
x3!
x2!
0h
1o
0f
0j
1n
1k
1d
1c
1b
1a
1`
1_
1^
1]
1\
1[
1Z
1Y
1X
1W
1V
1U
1T
1S
1R
1Q
1P
1O
1N
1M
1L
1K
1J
1I
1H
1G
1F
xe
xd
xc
xb
xa
x`
x_
x^
x]
x\
x[
xZ
xY
xX
xW
xV
xU
xT
xS
xR
xQ
xP
xO
xN
xM
xL
xK
xJ
xI
xH
xG
xF
1e
0d
0c
0b
0a
0`
0_
0^
0]
0\
0[
0Z
0Y
0X
0W
0V
0U
0T
0S
0R
0Q
0P
0O
0N
0M
0L
0K
0J
0I
0H
0G
0F
#240000
0#
#250000
1#
b100000000100100000000000000001 r!
b110100 s!
b1 t!
b1100 u!
b10001011100010000000000000001 z!
0B
1A
1x
1w
1s
0r
1Q!
0P!
0O!
0N!
0M!
0L!
0K!
0J!
0I!
0H!
0G!
0F!
0E!
0D!
0C!
0B!
0A!
0@!
0?!
0>!
0=!
0<!
0;!
0:!
09!
08!
07!
06!
05!
04!
03!
02!
1h
0o
xf
xj
0n
0k
0e
1d
0d
#260000
0#
#270000
1#
b10001100100100000000000000001 r!
b111000 s!
b0 t!
b1101 u!
b100000000100100000000000000001 z!
0A
0@
0?
1>
10!
1/!
1!!
0x
0w
0s
1r
xQ!
xP!
xO!
xN!
xM!
xL!
xK!
xJ!
xI!
xH!
xG!
xF!
xE!
xD!
xC!
xB!
xA!
x@!
x?!
x>!
x=!
x<!
x;!
x:!
x9!
x8!
x7!
x6!
x5!
x4!
x3!
x2!
0h
1o
0f
0j
1n
1k
1e
1d
1c
1b
1a
1`
1_
1^
1]
1\
1[
1Z
1Y
1X
1W
1V
1U
1T
1S
1R
1Q
1P
1O
1N
1M
1L
1K
1J
1I
1H
1G
1F
xe
xd
xc
xb
xa
x`
x_
x^
x]
x\
x[
xZ
xY
xX
xW
xV
xU
xT
xS
xR
xQ
xP
xO
xN
xM
xL
xK
xJ
xI
xH
xG
xF
1e
1d
1c
0b
0a
0`
0_
0^
0]
0\
0[
0Z
0Y
0X
0W
0V
0U
0T
0S
0R
0Q
0P
0O
0N
0M
0L
0K
0J
0I
0H
0G
0F
#280000
0#
#290000
1#
b100000000100110000000000000111 r!
b1000000 s!
b111 t!
b1110 u!
b10001100100100000000000000001 z!
1B
00!
0/!
1z
1x
1w
1s
0r
1Q!
1P!
1O!
0N!
0M!
0L!
0K!
0J!
0I!
0H!
0G!
0F!
0E!
0D!
0C!
0B!
0A!
0@!
0?!
0>!
0=!
0<!
0;!
0:!
09!
08!
07!
06!
05!
04!
03!
02!
1h
0o
xf
xj
0n
0k
0e
1b
0d
0c
0b
#300000
0#
#310000
1#
b10001101100110000000000000001 r!
b1000100 s!
b0 t!
b1111 u!
b100000000100110000000000000111 z!
1A
01!
10!
1/!
0!!
0~
1}
0z
0x
0w
0s
1r
xQ!
xP!
xO!
xN!
xM!
xL!
xK!
xJ!
xI!
xH!
xG!
xF!
xE!
xD!
xC!
xB!
xA!
x@!
x?!
x>!
x=!
x<!
x;!
x:!
x9!
x8!
x7!
x6!
x5!
x4!
x3!
x2!
0h
1o
0f
0j
1n
1k
1e
1b
1a
1`
1_
1^
1]
1\
1[
1Z
1Y
1X
1W
1V
1U
1T
1S
1R
1Q
1P
1O
1N
1M
1L
1K
1J
1I
1H
1G
1F
xe
xd
xc
xb
xa
x`
x_
x^
x]
x\
x[
xZ
xY
xX
xW
xV
xU
xT
xS
xR
xQ
xP
xO
xN
xM
xL
xK
xJ
xI
xH
xG
xF
0e
1d
1c
0b
0a
0`
0_
0^
0]
0\
0[
0Z
0Y
0X
0W
0V
0U
0T
0S
0R
0Q
0P
0O
0N
0M
0L
0K
0J
0I
0H
0G
0F
#320000
0#
#330000
1#
b100000000101000000000000000110 r!
b1001100 s!
b110 t!
b10000 u!
b10001101100110000000000000001 z!
0B
0A
1@
11!
00!
0/!
1y
1x
1w
1s
0r
0Q!
1P!
1O!
0N!
0M!
0L!
0K!
0J!
0I!
0H!
0G!
0F!
0E!
0D!
0C!
0B!
0A!
0@!
0?!
0>!
0=!
0<!
0;!
0:!
09!
08!
07!
06!
05!
04!
03!
02!
1h
0o
xf
xj
0n
0k
0d
1b
1e
1d
0b
0e
0d
0c
#340000
0#
#350000
1#
b10001110101000000000000000001 r!
b1010000 s!
b0 t!
b10001 u!
b100000000101000000000000000110 z!
1A
10!
1/!
1.!
1-!
1,!
1+!
1*!
0{
0y
0x
0w
0s
1r
xQ!
xP!
xO!
xN!
xM!
xL!
xK!
xJ!
xI!
xH!
xG!
xF!
xE!
xD!
xC!
xB!
xA!
x@!
x?!
x>!
x=!
x<!
x;!
x:!
x9!
x8!
x7!
x6!
x5!
x4!
x3!
x2!
0h
1o
0f
0j
1n
1k
1d
1b
1a
1`
1_
1^
1]
1\
1[
1Z
1Y
1X
1W
1V
1U
1T
1S
1R
1Q
1P
1O
1N
1M
1L
1K
1J
1I
1H
1G
1F
xe
xd
xc
xb
xa
x`
x_
x^
x]
x\
x[
xZ
xY
xX
xW
xV
xU
xT
xS
xR
xQ
xP
xO
xN
xM
xL
xK
xJ
xI
xH
xG
xF
1e
1d
1c
1b
1a
1`
1_
1^
0]
0\
0[
0Z
0Y
0X
0W
0V
0U
0T
0S
0R
0Q
0P
0O
0N
0M
0L
0K
0J
0I
0H
0G
0F
#360000
0#
#370000
1#
b100000000001000000000011111111 r!
b1011000 s!
b11111111 t!
b10010 u!
b10001110101000000000000000001 z!
1B
0-!
0,!
0+!
0*!
1!!
1x
1s
1Q!
1P!
1O!
1N!
1M!
1L!
1K!
1J!
0I!
0H!
0G!
0F!
0E!
0D!
0C!
0B!
0A!
0@!
0?!
0>!
0=!
0<!
0;!
0:!
09!
08!
07!
06!
05!
04!
03!
02!
xQ!
xP!
xO!
xN!
xM!
xL!
xK!
xJ!
xI!
xH!
xG!
xF!
xE!
xD!
xC!
xB!
xA!
x@!
x?!
x>!
x=!
x<!
x;!
x:!
x9!
x8!
x7!
x6!
x5!
x4!
x3!
x2!
0e
1]
1e
0a
0`
0_
0^
0]
#380000
0#
#390000
1#
b110000100001010000000000001111 r!
b1011100 s!
b1111 t!
b10011 u!
b100000000001000000000011111111 z!
0B
0A
0@
1?
01!
00!
0/!
0.!
1-!
1,!
1+!
1*!
0!!
1~
1u
1Q!
1P!
1O!
1N!
0M!
0L!
0K!
0J!
0I!
0H!
0G!
0F!
0E!
0D!
0C!
0B!
0A!
0@!
0?!
0>!
0=!
0<!
0;!
0:!
09!
08!
07!
06!
05!
04!
03!
02!
xQ!
xP!
xO!
xN!
xM!
xL!
xK!
xJ!
xI!
xH!
xG!
xF!
xE!
xD!
xC!
xB!
xA!
x@!
x?!
x>!
x=!
x<!
x;!
x:!
x9!
x8!
x7!
x6!
x5!
x4!
x3!
x2!
1a
1`
1_
1^
#400000
0#
#410000
1#
b110100100001100000000011110000 r!
b1100000 s!
b11111111 t!
b10100 u!
b110000100001010000000000001111 z!
1B
10!
1.!
0-!
0+!
1!!
0u
1t
1Q!
1P!
1O!
1N!
1M!
1L!
1K!
1J!
0I!
0H!
0G!
0F!
0E!
0D!
0C!
0B!
0A!
0@!
0?!
0>!
0=!
0<!
0;!
0:!
09!
08!
07!
06!
05!
04!
03!
02!
xQ!
xP!
xO!
xN!
xM!
xL!
xK!
xJ!
xI!
xH!
xG!
xF!
xE!
xD!
xC!
xB!
xA!
x@!
x?!
x>!
x=!
x<!
x;!
x:!
x9!
x8!
x7!
x6!
x5!
x4!
x3!
x2!
0d
0b
0`
0^
#420000
0#
#430000
1#
b111000100001110000000010101010 r!
b1100100 s!
b1010101 t!
b10101 u!
b110100100001100000000011110000 z!
0B
1A
11!
1/!
0,!
0*!
0~
1{
0x
0t
0s
1Q!
0P!
1O!
0N!
1M!
0L!
1K!
0J!
0I!
0H!
0G!
0F!
0E!
0D!
0C!
0B!
0A!
0@!
0?!
0>!
0=!
0<!
0;!
0:!
09!
08!
07!
06!
05!
04!
03!
02!
xQ!
xP!
xO!
xN!
xM!
xL!
xK!
xJ!
xI!
xH!
xG!
xF!
xE!
xD!
xC!
xB!
xA!
x@!
x?!
x>!
x=!
x<!
x;!
x:!
x9!
x8!
x7!
x6!
x5!
x4!
x3!
x2!
0e
1d
0c
1b
0a
1`
0_
1^
1e
1c
0`
0^
#440000
0#
#450000
1#
b100000000101010000000000001111 r!
b1101000 s!
b1111 t!
b10110 u!
b111000100001110000000010101010 z!
1B
00!
0/!
0.!
1z
1x
1s
0r
1Q!
1P!
1O!
1N!
0M!
0L!
0K!
0J!
0I!
0H!
0G!
0F!
0E!
0D!
0C!
0B!
0A!
0@!
0?!
0>!
0=!
0<!
0;!
0:!
09!
08!
07!
06!
05!
04!
03!
02!
1h
0o
xf
xj
0n
0k
0e
1a
0d
0c
0b
0a
#460000
0#
#470000
1#
b10000101101010000000000000001 r!
b1101100 s!
b0 t!
b10111 u!
b100000000101010000000000001111 z!
0A
1@
10!
1/!
1.!
1-!
1,!
1+!
1*!
0!!
1~
0z
0x
0s
1r
xQ!
xP!
xO!
xN!
xM!
xL!
xK!
xJ!
xI!
xH!
xG!
xF!
xE!
xD!
xC!
xB!
xA!
x@!
x?!
x>!
x=!
x<!
x;!
x:!
x9!
x8!
x7!
x6!
x5!
x4!
x3!
x2!
0h
1o
0f
0j
1n
1k
1e
1a
1`
1_
1^
1]
1\
1[
1Z
1Y
1X
1W
1V
1U
1T
1S
1R
1Q
1P
1O
1N
1M
1L
1K
1J
1I
1H
1G
1F
xe
xd
xc
xb
xa
x`
x_
x^
x]
x\
x[
xZ
xY
xX
xW
xV
xU
xT
xS
xR
xQ
xP
xO
xN
xM
xL
xK
xJ
xI
xH
xG
xF
1e
1d
1c
1b
1a
1`
1_
1^
0]
0\
0[
0Z
0Y
0X
0W
0V
0U
0T
0S
0R
0Q
0P
0O
0N
0M
0L
0K
0J
0I
0H
0G
0F
#480000
0#
#490000
1#
b100000000101100000000011111111 r!
b1110100 s!
b11111111 t!
b11000 u!
b10000101101010000000000000001 z!
0B
1A
00!
0/!
0.!
0-!
0,!
0+!
0*!
1y
1x
1s
0r
1Q!
1P!
1O!
1N!
1M!
1L!
1K!
1J!
0I!
0H!
0G!
0F!
0E!
0D!
0C!
0B!
0A!
0@!
0?!
0>!
0=!
0<!
0;!
0:!
09!
08!
07!
06!
05!
04!
03!
02!
1h
0o
xf
xj
0n
0k
0e
1]
0d
0c
0b
0a
0`
0_
0^
0]
#500000
0#
#510000
1#
b10000110101100000000000000001 r!
b1111000 s!
b0 t!
b11001 u!
b100000000101100000000011111111 z!
0A
0@
0?
0>
1=
1/!
1-!
1+!
1!!
0y
0x
0s
1r
xQ!
xP!
xO!
xN!
xM!
xL!
xK!
xJ!
xI!
xH!
xG!
xF!
xE!
xD!
xC!
xB!
xA!
x@!
x?!
x>!
x=!
x<!
x;!
x:!
x9!
x8!
x7!
x6!
x5!
x4!
x3!
x2!
0h
1o
0f
0j
1n
1k
1e
1]
1\
1[
1Z
1Y
1X
1W
1V
1U
1T
1S
1R
1Q
1P
1O
1N
1M
1L
1K
1J
1I
1H
1G
1F
xe
xd
xc
xb
xa
x`
x_
x^
x]
x\
x[
xZ
xY
xX
xW
xV
xU
xT
xS
xR
xQ
xP
xO
xN
xM
xL
xK
xJ
xI
xH
xG
xF
1e
0d
1c
0b
1a
0`
1_
0^
0]
0\
0[
0Z
0Y
0X
0W
0V
0U
0T
0S
0R
0Q
0P
0O
0N
0M
0L
0K
0J
0I
0H
0G
0F
#520000
0#
#530000
1#
b100000000101110000000001010101 r!
b10000000 s!
b1010101 t!
b11010 u!
b10000110101100000000000000001 z!
1B
0/!
0-!
0+!
1z
1y
1x
1s
0r
1Q!
0P!
1O!
0N!
1M!
0L!
1K!
0J!
0I!
0H!
0G!
0F!
0E!
0D!
0C!
0B!
0A!
0@!
0?!
0>!
0=!
0<!
0;!
0:!
09!
08!
07!
06!
05!
04!
03!
02!
1h
0o
xf
xj
0n
0k
0e
1d
0c
1b
0a
1`
0_
1^
1c
0b
1a
0`
1_
0^
0d
0c
0a
0_
#540000
0#
#550000
1#
b10000111101110000000000000001 r!
b10000100 s!
b0 t!
b11011 u!
b100000000101110000000001010101 z!
1A
01!
0!!
0~
0}
1|
0{
0z
0y
0x
1u
1t
0s
1r
1p
0M!
0K!
0h
1m
1n
0l
1e
1d
1b
1`
1^
1]
1\
1[
1Z
1Y
1X
1W
1V
1U
1T
1S
1R
1Q
1P
1O
1N
1M
1L
1K
1J
1I
1H
1G
1F
1a
1_
0e
0d
0b
0a
0`
0_
0^
0]
0\
0[
0Z
0Y
0X
0W
0V
0U
0T
0S
0R
0Q
0P
0O
0N
0M
0L
0K
0J
0I
0H
0G
0F
#560000
0#
#570000
1#
b10101100000010000000000000000000 r!
b10001100 s!
b11100 u!
b10000111101110000000000000001 z!
0B
0A
1@
1~
0|
0r
xQ!
xP!
xO!
xN!
xM!
xL!
xK!
xJ!
xI!
xH!
xG!
xF!
xE!
xD!
xC!
xB!
xA!
x@!
x?!
x>!
x=!
x<!
x;!
x:!
x9!
x8!
x7!
x6!
x5!
x4!
x3!
x2!
1i
0m
1o
0f
1j
1q!
0p!
1o!
0n!
0m!
0l!
0k!
0j!
0i!
0h!
0g!
0f!
0e!
0d!
0c!
0b!
0a!
0`!
0_!
0^!
0]!
0\!
0[!
0Z!
0Y!
0X!
0W!
0V!
0U!
0T!
0S!
0R!
#580000
0#
#590000
1#
b10001100000000100000000000000000 r!
b10010000 s!
b11101 u!
b10101100000010000000000000000000 z!
1B
11!
0~
1|
1y
0u
0t
1s
0p
1Q!
0P!
1O!
0N!
0M!
0L!
0K!
0J!
0I!
0H!
0G!
0F!
0E!
0D!
0C!
0B!
0A!
0@!
0?!
0>!
0=!
0<!
0;!
0:!
09!
08!
07!
06!
05!
04!
03!
02!
1h
0i
0o
xf
xj
0n
zq!
zp!
zo!
zn!
zm!
zl!
zk!
zj!
zi!
zh!
zg!
zf!
ze!
zd!
zc!
zb!
za!
z`!
z_!
z^!
z]!
z\!
z[!
zZ!
zY!
zX!
zW!
zV!
zU!
zT!
zS!
zR!
1l
1e
1c
0e
1d
0d
0c
#600000
0#
#610000
1#
b10000010010000000000000000001 r!
b10010100 s!
b11110 u!
b10001100000000100000000000000000 z!
1A
1~
1{
0y
0s
1r
xQ!
xP!
xO!
xN!
xM!
xL!
xK!
xJ!
xI!
xH!
xG!
xF!
xE!
xD!
xC!
xB!
xA!
x@!
x?!
x>!
x=!
x<!
x;!
x:!
x9!
x8!
x7!
x6!
x5!
x4!
x3!
x2!
0h
1o
0f
0j
1n
1k
1e
1d
1b
1a
1`
1_
1^
1]
1\
1[
1Z
1Y
1X
1W
1V
1U
1T
1S
1R
1Q
1P
1O
1N
1M
1L
1K
1J
1I
1H
1G
1F
xe
xd
xc
xb
xa
x`
x_
x^
x]
x\
x[
xZ
xY
xX
xW
xV
xU
xT
xS
xR
xQ
xP
xO
xN
xM
xL
xK
xJ
xI
xH
xG
xF
1e
0d
0c
0b
0a
0`
0_
0^
0]
0\
0[
0Z
0Y
0X
0W
0V
0U
0T
0S
0R
0Q
0P
0O
0N
0M
0L
0K
0J
0I
0H
0G
0F
#620000
0#
#630000
1#
b100000000110100000000000000001 r!
b10011100 s!
b1 t!
b11111 u!
b10000010010000000000000000001 z!
0B
0A
0@
1?
01!
1/!
1.!
1u
1t
1p
1Q!
0P!
0O!
0N!
0M!
0L!
0K!
0J!
0I!
0H!
0G!
0F!
0E!
0D!
0C!
0B!
0A!
0@!
0?!
0>!
0=!
0<!
0;!
0:!
09!
08!
07!
06!
05!
04!
03!
02!
1m
0o
xf
xj
0l
0k
0e
1c
1b
#640000
0#
#650000
1#
b10101100000110100000000000001100 r!
b10100000 s!
b1100 t!
b100000 u!
b100000000110100000000000000001 z!
1B
11!
1,!
0~
0|
0u
0r
0p
0Q!
1N!
0m
1g
xn
xl
xk
1e
1`
#660000
0#
#670000
1#
b1000000100000000000000101101 r!
b10100100 s!
b101101 t!
b100001 u!
b10101100000110100000000000001100 z!
1@
1.
0.!
1-!
0,!
1+!
1)!
1'!
1%!
1#!
1~
0{
0t
1r
1Q!
1O!
0N!
1o
0f
0g
0j
1n
1l
1k
0b
1a
0`
1_
1]
1[
1Y
1W
#680000
0#
