pipecycle/transcript
# do scripts/run_basic.do
# ** Warning: (vlib-34) Library already exists at "./out/work".
# Model Technology ModelSim DE-64 vmap 10.6c Lib Mapping Utility 2017.07 Jul 26 2017
# vmap work ./out/work 
# Modifying modelsim.ini
# Model Technology ModelSim DE-64 vlog 10.6c Compiler 2017.07 Jul 26 2017
# Start time: 18:50:15 on Dec 30,2025
# vlog -reportprogress 300 ./src/ADD.v 
# -- Compiling module ADD
# 
# Top level modules:
# 	ADD
# End time: 18:50:15 on Dec 30,2025, Elapsed time: 0:00:00
# Errors: 0, Warnings: 0
# Model Technology ModelSim DE-64 vlog 10.6c Compiler 2017.07 Jul 26 2017
# Start time: 18:50:15 on Dec 30,2025
# vlog -reportprogress 300 ./src/IM.v 
# -- Compiling module IM
# 
# Top level modules:
# 	IM
# End time: 18:50:15 on Dec 30,2025, Elapsed time: 0:00:00
# Errors: 0, Warnings: 0
# Model Technology ModelSim DE-64 vlog 10.6c Compiler 2017.07 Jul 26 2017
# Start time: 18:50:15 on Dec 30,2025
# vlog -reportprogress 300 ./src/PC.v 
# -- Compiling module PC
# 
# Top level modules:
# 	PC
# End time: 18:50:15 on Dec 30,2025, Elapsed time: 0:00:00
# Errors: 0, Warnings: 0
# Model Technology ModelSim DE-64 vlog 10.6c Compiler 2017.07 Jul 26 2017
# Start time: 18:50:15 on Dec 30,2025
# vlog -reportprogress 300 ./src/MUX_2.v 
# -- Compiling module MUX_2
# 
# Top level modules:
# 	MUX_2
# End time: 18:50:15 on Dec 30,2025, Elapsed time: 0:00:00
# Errors: 0, Warnings: 0
# Model Technology ModelSim DE-64 vlog 10.6c Compiler 2017.07 Jul 26 2017
# Start time: 18:50:15 on Dec 30,2025
# vlog -reportprogress 300 ./src/IF_ID.v 
# -- Compiling module IF_ID
# 
# Top level modules:
# 	IF_ID
# End time: 18:50:15 on Dec 30,2025, Elapsed time: 0:00:00
# Errors: 0, Warnings: 0
# Model Technology ModelSim DE-64 vlog 10.6c Compiler 2017.07 Jul 26 2017
# Start time: 18:50:16 on Dec 30,2025
# vlog -reportprogress 300 ./src/RF.v 
# -- Compiling module RF
# 
# Top level modules:
# 	RF
# End time: 18:50:16 on Dec 30,2025, Elapsed time: 0:00:00
# Errors: 0, Warnings: 0
# Model Technology ModelSim DE-64 vlog 10.6c Compiler 2017.07 Jul 26 2017
# Start time: 18:50:16 on Dec 30,2025
# vlog -reportprogress 300 ./src/ID_EX.v 
# -- Compiling module ID_EX
# 
# Top level modules:
# 	ID_EX
# End time: 18:50:16 on Dec 30,2025, Elapsed time: 0:00:00
# Errors: 0, Warnings: 0
# Model Technology ModelSim DE-64 vlog 10.6c Compiler 2017.07 Jul 26 2017
# Start time: 18:50:16 on Dec 30,2025
# vlog -reportprogress 300 ./src/SigExt16_32.v 
# -- Compiling module SigExt16_32
# 
# Top level modules:
# 	SigExt16_32
# End time: 18:50:16 on Dec 30,2025, Elapsed time: 0:00:00
# Errors: 0, Warnings: 0
# Model Technology ModelSim DE-64 vlog 10.6c Compiler 2017.07 Jul 26 2017
# Start time: 18:50:16 on Dec 30,2025
# vlog -reportprogress 300 ./src/SHL2.v 
# -- Compiling module SHL
# 
# Top level modules:
# 	SHL
# End time: 18:50:16 on Dec 30,2025, Elapsed time: 0:00:00
# Errors: 0, Warnings: 0
# Model Technology ModelSim DE-64 vlog 10.6c Compiler 2017.07 Jul 26 2017
# Start time: 18:50:16 on Dec 30,2025
# vlog -reportprogress 300 ./src/MUX_4.v 
# -- Compiling module MUX_4
# 
# Top level modules:
# 	MUX_4
# End time: 18:50:16 on Dec 30,2025, Elapsed time: 0:00:00
# Errors: 0, Warnings: 0
# Model Technology ModelSim DE-64 vlog 10.6c Compiler 2017.07 Jul 26 2017
# Start time: 18:50:17 on Dec 30,2025
# vlog -reportprogress 300 ./src/ALU.v 
# -- Compiling module ALU
# 
# Top level modules:
# 	ALU
# End time: 18:50:17 on Dec 30,2025, Elapsed time: 0:00:00
# Errors: 0, Warnings: 0
# Model Technology ModelSim DE-64 vlog 10.6c Compiler 2017.07 Jul 26 2017
# Start time: 18:50:17 on Dec 30,2025
# vlog -reportprogress 300 ./src/EX_MA.v 
# -- Compiling module EX_MA
# 
# Top level modules:
# 	EX_MA
# End time: 18:50:17 on Dec 30,2025, Elapsed time: 0:00:00
# Errors: 0, Warnings: 0
# Model Technology ModelSim DE-64 vlog 10.6c Compiler 2017.07 Jul 26 2017
# Start time: 18:50:17 on Dec 30,2025
# vlog -reportprogress 300 ./src/DM.v 
# -- Compiling module DM
# 
# Top level modules:
# 	DM
# End time: 18:50:17 on Dec 30,2025, Elapsed time: 0:00:00
# Errors: 0, Warnings: 0
# Model Technology ModelSim DE-64 vlog 10.6c Compiler 2017.07 Jul 26 2017
# Start time: 18:50:17 on Dec 30,2025
# vlog -reportprogress 300 ./src/MA_WB.v 
# -- Compiling module MA_WB
# 
# Top level modules:
# 	MA_WB
# End time: 18:50:17 on Dec 30,2025, Elapsed time: 0:00:00
# Errors: 0, Warnings: 0
# Model Technology ModelSim DE-64 vlog 10.6c Compiler 2017.07 Jul 26 2017
# Start time: 18:50:17 on Dec 30,2025
# vlog -reportprogress 300 ./src/CU.v 
# -- Compiling module CU
# 
# Top level modules:
# 	CU
# End time: 18:50:17 on Dec 30,2025, Elapsed time: 0:00:00
# Errors: 0, Warnings: 0
# Model Technology ModelSim DE-64 vlog 10.6c Compiler 2017.07 Jul 26 2017
# Start time: 18:50:18 on Dec 30,2025
# vlog -reportprogress 300 ./src/Forward_Unit.v 
# -- Compiling module Forward_Unit
# 
# Top level modules:
# 	Forward_Unit
# End time: 18:50:18 on Dec 30,2025, Elapsed time: 0:00:00
# Errors: 0, Warnings: 0
# Model Technology ModelSim DE-64 vlog 10.6c Compiler 2017.07 Jul 26 2017
# Start time: 18:50:18 on Dec 30,2025
# vlog -reportprogress 300 ./src/Hazard_Unit.v 
# -- Compiling module Hazard_Unit
# 
# Top level modules:
# 	Hazard_Unit
# End time: 18:50:18 on Dec 30,2025, Elapsed time: 0:00:00
# Errors: 0, Warnings: 0
# Model Technology ModelSim DE-64 vlog 10.6c Compiler 2017.07 Jul 26 2017
# Start time: 18:50:18 on Dec 30,2025
# vlog -reportprogress 300 ./src/MIPS.v 
# -- Compiling module ADD
# -- Compiling module IM
# -- Compiling module PC
# -- Compiling module MUX_2
# -- Compiling module IF_ID
# -- Compiling module RF
# -- Compiling module ID_EX
# -- Compiling module SigExt16_32
# -- Compiling module SHL
# -- Compiling module MUX_4
# -- Compiling module ALU
# -- Compiling module EX_MA
# -- Compiling module DM
# -- Compiling module MA_WB
# -- Compiling module CU
# -- Compiling module Forward_Unit
# -- Compiling module Hazard_Unit
# -- Compiling module MIPS
# 
# Top level modules:
# 	MIPS
# End time: 18:50:18 on Dec 30,2025, Elapsed time: 0:00:00
# Errors: 0, Warnings: 0
# Model Technology ModelSim DE-64 vlog 10.6c Compiler 2017.07 Jul 26 2017
# Start time: 18:50:19 on Dec 30,2025
# vlog -reportprogress 300 ./sim/mips_basic_tb.sv 
# -- Compiling module mips_basic_tb
# 
# Top level modules:
# 	mips_basic_tb
# End time: 18:50:19 on Dec 30,2025, Elapsed time: 0:00:00
# Errors: 0, Warnings: 0
# ./asm/basic.txt
# vsim -wlf ./out/mips_wave.wlf work.mips_basic_tb 
# Start time: 18:50:19 on Dec 30,2025
# //  ModelSim DE-64 10.6c Jul 26 2017
# //
# //  Copyright 1991-2017 Mentor Graphics Corporation
# //  All Rights Reserved.
# //
# //  ModelSim DE-64 and its associated documentation contain trade
# //  secrets and commercial or financial information that are the property of
# //  Mentor Graphics Corporation and are privileged, confidential,
# //  and exempt from disclosure under the Freedom of Information Act,
# //  5 U.S.C. Section 552. Furthermore, this information
# //  is prohibited from disclosure under the Trade Secrets Act,
# //  18 U.S.C. Section 1905.
# //
# Loading sv_std.std
# Loading work.mips_basic_tb
# Loading work.MIPS
# Loading work.PC
# Loading work.ADD
# Loading work.MUX_2
# Loading work.IM
# Loading work.IF_ID
# Loading work.RF
# Loading work.SigExt16_32
# Loading work.ID_EX
# Loading work.SHL
# Loading work.MUX_4
# Loading work.ALU
# Loading work.EX_MA
# Loading work.DM
# Loading work.MA_WB
# Loading work.CU
# Loading work.Forward_Unit
# Loading work.Hazard_Unit
# ** Warning: (vsim-WLF-5000) WLF file currently in use: ./out/mips_wave.wlf
#           File in use by: 20174  Hostname: SCIZ  ProcessID: 20248
#           Attempting to use alternate WLF file "./out/wlftdqezwj".
# ** Warning: (vsim-WLF-5001) Could not open WLF file: ./out/mips_wave.wlf
#           Using alternate file: ./out/wlftdqezwj
# RF: 寄存器文件初始化完成
# ** Warning: (vsim-PLI-3110) ./sim/mips_basic_tb.sv(192): $dumpfile : This task can be called only once. Please use $fdumpfile()
# for multiple files.
#    Time: 0 ps  Iteration: 0  Instance: /mips_basic_tb
# ==========================================
# MIPS流水线CPU基础测试开始
# 时间单位：ns
# ==========================================
# 
# === 时钟周期 5 @                55000 ns ===
# PC状态：
#   PC = 00000000, PCWr = 1, IF_ID_RegWr = 1
#   冒险控制：Clear0 = 0 (清ID控制), Clear1 = 0 (清EX控制)
# 流水线指令：
#   IF: 2001000a (opcode:08, rs:$ 0, rt:$ 1)
#   ID: 00000000 (opcode:00, rs:$ 0, rt:$ 0)
#   EX: 00000000 (opcode:00, rs:$ 0, rt:$ 0)
#   MEM: 00000000 (opcode:00, rs:$ 0, rt:$ 0)
#   WB: 00000000 (opcode:00, rs:$ 0, rt:$ 0)
# 写回阶段：
#   目标寄存器：$ 0, 数据：00000000
#   控制：RegWrite=0, MemtoReg=0, RegDst=0
# 控制信号分析：
#   EX级控制：[WB:000 MA:0000 EX:0000]
#     写回控制 - RegDst:0 RegWrite:0 MemToReg:0
#     访存控制 - MemRead:0 MemWrite:0 Branch:0 Jump:0
#     ALU控制：0000
#   EX阶段数据：
#     RsE = 00000000, RtE = 00000000, Imm32E = 00000000
#     ALU输入: A = 00000000, B = 00000000
#     ALU输出: 00000000
#     转发控制: ALUSrcA = 00, ALUSrcB = 00, MemSrc = 0
#   MEM级控制：[WB:000 MA:0000]
#     写回控制 - RegDst:0 RegWrite:0 MemToReg:0
#     访存控制 - MemRead:0 MemWrite:0 Branch:0 Jump:0
#   MEM阶段数据：
#     ALUOutM = 00000000, RtM = 00000000, MEMOutM = zzzzzzzz
#   WB级控制：[WB:000]
#     写回控制 - RegDst:0 RegWrite:0 MemToReg:0
#   WB阶段数据：
#     ALUOutW = 00000000, MEMOutW = 00000000
# 地址信息：
# pcplus4f=00000004,pcplus4d=00000000,pcplus4e=00000000,mux_ma=00000000
# [周期          5详细分析]
# --------------------------------------------------
# 
# === 时钟周期 6 @                65000 ns ===
# PC状态：
#   PC = 00000004, PCWr = 1, IF_ID_RegWr = 1
#   冒险控制：Clear0 = 0 (清ID控制), Clear1 = 0 (清EX控制)
# 流水线指令：
#   IF: 20020005 (opcode:08, rs:$ 0, rt:$ 2)
#   ID: 2001000a (opcode:08, rs:$ 0, rt:$ 1)
#   EX: 00000000 (opcode:00, rs:$ 0, rt:$ 0)
#   MEM: 00000000 (opcode:00, rs:$ 0, rt:$ 0)
#   WB: 00000000 (opcode:00, rs:$ 0, rt:$ 0)
# 写回阶段：
#   目标寄存器：$ 0, 数据：00000000
#   控制：RegWrite=0, MemtoReg=0, RegDst=0
# 控制信号分析：
#   EX级控制：[WB:110 MA:0000 EX:1001]
#     写回控制 - RegDst:1 RegWrite:1 MemToReg:0
#     访存控制 - MemRead:0 MemWrite:0 Branch:0 Jump:0
#     ALU控制：1001
#   EX阶段数据：
#     RsE = 00000000, RtE = 00000000, Imm32E = 00000000
#     ALU输入: A = 00000000, B = 00000000
#     ALU输出: 00000000
#     转发控制: ALUSrcA = 00, ALUSrcB = 00, MemSrc = 0
#   MEM级控制：[WB:000 MA:0000]
#     写回控制 - RegDst:0 RegWrite:0 MemToReg:0
#     访存控制 - MemRead:0 MemWrite:0 Branch:0 Jump:0
#   MEM阶段数据：
#     ALUOutM = 00000000, RtM = 00000000, MEMOutM = zzzzzzzz
#   WB级控制：[WB:000]
#     写回控制 - RegDst:0 RegWrite:0 MemToReg:0
#   WB阶段数据：
#     ALUOutW = 00000000, MEMOutW = zzzzzzzz
# 地址信息：
# pcplus4f=00000008,pcplus4d=00000004,pcplus4e=00000000,mux_ma=00000000
# [周期          6详细分析]
# --------------------------------------------------
# 
# === 时钟周期 7 @                75000 ns ===
# PC状态：
#   PC = 00000008, PCWr = 1, IF_ID_RegWr = 1
#   冒险控制：Clear0 = 0 (清ID控制), Clear1 = 0 (清EX控制)
# 流水线指令：
#   IF: 00221820 (opcode:00, rs:$ 1, rt:$ 2)
#   ID: 20020005 (opcode:08, rs:$ 0, rt:$ 2)
#   EX: 2001000a (opcode:08, rs:$ 0, rt:$ 1)
#   MEM: 00000000 (opcode:00, rs:$ 0, rt:$ 0)
#   WB: 00000000 (opcode:00, rs:$ 0, rt:$ 0)
# 写回阶段：
#   目标寄存器：$ 0, 数据：00000000
#   控制：RegWrite=0, MemtoReg=0, RegDst=0
# 控制信号分析：
#   EX级控制：[WB:010 MA:0000 EX:0010]
#     写回控制 - RegDst:0 RegWrite:1 MemToReg:0
#     访存控制 - MemRead:0 MemWrite:0 Branch:0 Jump:0
#     ALU控制：0010
#   EX阶段数据：
#     RsE = 00000000, RtE = 00000000, Imm32E = 0000000a
#     ALU输入: A = 00000000, B = 0000000a
#     ALU输出: 0000000a
#     转发控制: ALUSrcA = 00, ALUSrcB = 11, MemSrc = 0
#   MEM级控制：[WB:110 MA:0000]
#     写回控制 - RegDst:1 RegWrite:1 MemToReg:0
#     访存控制 - MemRead:0 MemWrite:0 Branch:0 Jump:0
#   MEM阶段数据：
#     ALUOutM = 00000000, RtM = 00000000, MEMOutM = zzzzzzzz
#   WB级控制：[WB:000]
#     写回控制 - RegDst:0 RegWrite:0 MemToReg:0
#   WB阶段数据：
#     ALUOutW = 00000000, MEMOutW = zzzzzzzz
# 地址信息：
# pcplus4f=0000000c,pcplus4d=00000008,pcplus4e=00000004,mux_ma=00000000
# [周期          7详细分析]
#   [关键检查] addi $1, $0, 10
#     预期：A=0, B=10, ALUOutE=10
#     实际：A=00000000, B=0000000a, ALUOutE=0000000a
# --------------------------------------------------
# 
# === 时钟周期 8 @                85000 ns ===
# PC状态：
#   PC = 0000000c, PCWr = 1, IF_ID_RegWr = 1
#   冒险控制：Clear0 = 0 (清ID控制), Clear1 = 0 (清EX控制)
# 流水线指令：
#   IF: 30640007 (opcode:0c, rs:$ 3, rt:$ 4)
#   ID: 00221820 (opcode:00, rs:$ 1, rt:$ 2)
#   EX: 20020005 (opcode:08, rs:$ 0, rt:$ 2)
#   MEM: 2001000a (opcode:08, rs:$ 0, rt:$ 1)
#   WB: 00000000 (opcode:00, rs:$ 0, rt:$ 0)
# 写回阶段：
#   目标寄存器：$ 0, 数据：00000000
#   控制：RegWrite=1, MemtoReg=0, RegDst=1
# 控制信号分析：
#   EX级控制：[WB:010 MA:0000 EX:0010]
#     写回控制 - RegDst:0 RegWrite:1 MemToReg:0
#     访存控制 - MemRead:0 MemWrite:0 Branch:0 Jump:0
#     ALU控制：0010
#   EX阶段数据：
#     RsE = 00000000, RtE = 00000000, Imm32E = 00000005
#     ALU输入: A = 00000000, B = 00000005
#     ALU输出: 00000005
#     转发控制: ALUSrcA = 00, ALUSrcB = 11, MemSrc = 0
#   MEM级控制：[WB:010 MA:0000]
#     写回控制 - RegDst:0 RegWrite:1 MemToReg:0
#     访存控制 - MemRead:0 MemWrite:0 Branch:0 Jump:0
#   MEM阶段数据：
#     ALUOutM = 0000000a, RtM = 00000000, MEMOutM = zzzzzzzz
#   WB级控制：[WB:110]
#     写回控制 - RegDst:1 RegWrite:1 MemToReg:0
#   WB阶段数据：
#     ALUOutW = 00000000, MEMOutW = zzzzzzzz
# 地址信息：
# pcplus4f=00000010,pcplus4d=0000000c,pcplus4e=00000008,mux_ma=00000000
# [周期          8详细分析]
#   [关键检查] addi $2, $0, 5
#     预期：A=0, B=5, ALUOutE=5
#     实际：A=00000000, B=00000005, ALUOutE=00000005
# --------------------------------------------------
# 
# === 时钟周期 9 @                95000 ns ===
# PC状态：
#   PC = 00000010, PCWr = 1, IF_ID_RegWr = 1
#   冒险控制：Clear0 = 0 (清ID控制), Clear1 = 0 (清EX控制)
# 流水线指令：
#   IF: 20060001 (opcode:08, rs:$ 0, rt:$ 6)
#   ID: 30640007 (opcode:0c, rs:$ 3, rt:$ 4)
#   EX: 00221820 (opcode:00, rs:$ 1, rt:$ 2)
#   MEM: 20020005 (opcode:08, rs:$ 0, rt:$ 2)
#   WB: 2001000a (opcode:08, rs:$ 0, rt:$ 1)
# 写回阶段：
#   目标寄存器：$ 1, 数据：0000000a
#   控制：RegWrite=1, MemtoReg=0, RegDst=0
#   [寄存器更新] $ 1 <- 0000000a
# 控制信号分析：
#   EX级控制：[WB:110 MA:0000 EX:0010]
#     写回控制 - RegDst:1 RegWrite:1 MemToReg:0
#     访存控制 - MemRead:0 MemWrite:0 Branch:0 Jump:0
#     ALU控制：0010
#   EX阶段数据：
#     RsE = 00000000, RtE = 00000000, Imm32E = 00001820
#     ALU输入: A = 0000000a, B = 00000005
#     ALU输出: 0000000f
#     转发控制: ALUSrcA = 10, ALUSrcB = 01, MemSrc = 0
#   MEM级控制：[WB:010 MA:0000]
#     写回控制 - RegDst:0 RegWrite:1 MemToReg:0
#     访存控制 - MemRead:0 MemWrite:0 Branch:0 Jump:0
#   MEM阶段数据：
#     ALUOutM = 00000005, RtM = 00000000, MEMOutM = zzzzzzzz
#   WB级控制：[WB:010]
#     写回控制 - RegDst:0 RegWrite:1 MemToReg:0
#   WB阶段数据：
#     ALUOutW = 0000000a, MEMOutW = zzzzzzzz
# 地址信息：
# pcplus4f=00000014,pcplus4d=00000010,pcplus4e=0000000c,mux_ma=00000000
# [周期          9详细分析]
#   [关键检查] add $3, $1, $2
#     预期：A=10, B=5, ALUOutE=15
#     实际：A=0000000a, B=00000005, ALUOutE=0000000f
#     转发：ALUSrcA=10, ALUSrcB=01
# --------------------------------------------------
# 
# === 时钟周期 10 @               105000 ns ===
# PC状态：
#   PC = 00000014, PCWr = 1, IF_ID_RegWr = 1
#   冒险控制：Clear0 = 0 (清ID控制), Clear1 = 0 (清EX控制)
# 流水线指令：
#   IF: 20070002 (opcode:08, rs:$ 0, rt:$ 7)
#   ID: 20060001 (opcode:08, rs:$ 0, rt:$ 6)
#   EX: 30640007 (opcode:0c, rs:$ 3, rt:$ 4)
#   MEM: 00221820 (opcode:00, rs:$ 1, rt:$ 2)
#   WB: 20020005 (opcode:08, rs:$ 0, rt:$ 2)
# 写回阶段：
#   目标寄存器：$ 2, 数据：00000005
#   控制：RegWrite=1, MemtoReg=0, RegDst=0
#   [寄存器更新] $ 2 <- 00000005
# 控制信号分析：
#   EX级控制：[WB:010 MA:0000 EX:0000]
#     写回控制 - RegDst:0 RegWrite:1 MemToReg:0
#     访存控制 - MemRead:0 MemWrite:0 Branch:0 Jump:0
#     ALU控制：0000
#   EX阶段数据：
#     RsE = 00000000, RtE = 00000000, Imm32E = 00000007
#     ALU输入: A = 0000000f, B = 00000007
#     ALU输出: 00000007
#     转发控制: ALUSrcA = 01, ALUSrcB = 11, MemSrc = 0
#   MEM级控制：[WB:110 MA:0000]
#     写回控制 - RegDst:1 RegWrite:1 MemToReg:0
#     访存控制 - MemRead:0 MemWrite:0 Branch:0 Jump:0
#   MEM阶段数据：
#     ALUOutM = 0000000f, RtM = 00000000, MEMOutM = zzzzzzzz
#   WB级控制：[WB:010]
#     写回控制 - RegDst:0 RegWrite:1 MemToReg:0
#   WB阶段数据：
#     ALUOutW = 00000005, MEMOutW = zzzzzzzz
# 地址信息：
# pcplus4f=00000018,pcplus4d=00000014,pcplus4e=00000010,mux_ma=00000000
# [周期         10详细分析]
#   [关键检查] andi $4, $3, 7
#     预期：A=15, B=7, ALUOutE=7 (15 & 7 = 7)
#     实际：A=0000000f, B=00000007, ALUOutE=00000007
# --------------------------------------------------
# 
# === 时钟周期 11 @               115000 ns ===
# PC状态：
#   PC = 00000018, PCWr = 1, IF_ID_RegWr = 1
#   冒险控制：Clear0 = 0 (清ID控制), Clear1 = 0 (清EX控制)
# 流水线指令：
#   IF: ac030000 (opcode:2b, rs:$ 0, rt:$ 3)
#   ID: 20070002 (opcode:08, rs:$ 0, rt:$ 7)
#   EX: 20060001 (opcode:08, rs:$ 0, rt:$ 6)
#   MEM: 30640007 (opcode:0c, rs:$ 3, rt:$ 4)
#   WB: 00221820 (opcode:00, rs:$ 1, rt:$ 2)
# 写回阶段：
#   目标寄存器：$ 3, 数据：0000000f
#   控制：RegWrite=1, MemtoReg=0, RegDst=1
#   [寄存器更新] $ 3 <- 0000000f
# 控制信号分析：
#   EX级控制：[WB:010 MA:0000 EX:0010]
#     写回控制 - RegDst:0 RegWrite:1 MemToReg:0
#     访存控制 - MemRead:0 MemWrite:0 Branch:0 Jump:0
#     ALU控制：0010
#   EX阶段数据：
#     RsE = 00000000, RtE = 00000000, Imm32E = 00000001
#     ALU输入: A = 00000000, B = 00000001
#     ALU输出: 00000001
#     转发控制: ALUSrcA = 00, ALUSrcB = 11, MemSrc = 0
#   MEM级控制：[WB:010 MA:0000]
#     写回控制 - RegDst:0 RegWrite:1 MemToReg:0
#     访存控制 - MemRead:0 MemWrite:0 Branch:0 Jump:0
#   MEM阶段数据：
#     ALUOutM = 00000007, RtM = 00000000, MEMOutM = zzzzzzzz
#   WB级控制：[WB:110]
#     写回控制 - RegDst:1 RegWrite:1 MemToReg:0
#   WB阶段数据：
#     ALUOutW = 0000000f, MEMOutW = zzzzzzzz
# 地址信息：
# pcplus4f=0000001c,pcplus4d=00000018,pcplus4e=00000014,mux_ma=00000000
# [周期         11详细分析]
# --------------------------------------------------
# 
# === 时钟周期 12 @               125000 ns ===
# PC状态：
#   PC = 0000001c, PCWr = 1, IF_ID_RegWr = 1
#   冒险控制：Clear0 = 0 (清ID控制), Clear1 = 0 (清EX控制)
# 流水线指令：
#   IF: 8c050000 (opcode:23, rs:$ 0, rt:$ 5)
#   ID: ac030000 (opcode:2b, rs:$ 0, rt:$ 3)
#   EX: 20070002 (opcode:08, rs:$ 0, rt:$ 7)
#   MEM: 20060001 (opcode:08, rs:$ 0, rt:$ 6)
#   WB: 30640007 (opcode:0c, rs:$ 3, rt:$ 4)
# 写回阶段：
#   目标寄存器：$ 4, 数据：00000007
#   控制：RegWrite=1, MemtoReg=0, RegDst=0
#   [寄存器更新] $ 4 <- 00000007
# 控制信号分析：
#   EX级控制：[WB:010 MA:0000 EX:0010]
#     写回控制 - RegDst:0 RegWrite:1 MemToReg:0
#     访存控制 - MemRead:0 MemWrite:0 Branch:0 Jump:0
#     ALU控制：0010
#   EX阶段数据：
#     RsE = 00000000, RtE = 00000000, Imm32E = 00000002
#     ALU输入: A = 00000000, B = 00000002
#     ALU输出: 00000002
#     转发控制: ALUSrcA = 00, ALUSrcB = 11, MemSrc = 0
#   MEM级控制：[WB:010 MA:0000]
#     写回控制 - RegDst:0 RegWrite:1 MemToReg:0
#     访存控制 - MemRead:0 MemWrite:0 Branch:0 Jump:0
#   MEM阶段数据：
#     ALUOutM = 00000001, RtM = 00000000, MEMOutM = zzzzzzzz
#   WB级控制：[WB:010]
#     写回控制 - RegDst:0 RegWrite:1 MemToReg:0
#   WB阶段数据：
#     ALUOutW = 00000007, MEMOutW = zzzzzzzz
# 地址信息：
# pcplus4f=00000020,pcplus4d=0000001c,pcplus4e=00000018,mux_ma=00000000
# [周期         12详细分析]
# --------------------------------------------------
# 
# === 时钟周期 13 @               135000 ns ===
# PC状态：
#   PC = 00000020, PCWr = 1, IF_ID_RegWr = 1
#   冒险控制：Clear0 = 0 (清ID控制), Clear1 = 0 (清EX控制)
# 流水线指令：
#   IF: 10650001 (opcode:04, rs:$ 3, rt:$ 5)
#   ID: 8c050000 (opcode:23, rs:$ 0, rt:$ 5)
#   EX: ac030000 (opcode:2b, rs:$ 0, rt:$ 3)
#   MEM: 20070002 (opcode:08, rs:$ 0, rt:$ 7)
#   WB: 20060001 (opcode:08, rs:$ 0, rt:$ 6)
# 写回阶段：
#   目标寄存器：$ 6, 数据：00000001
#   控制：RegWrite=1, MemtoReg=0, RegDst=0
#   [寄存器更新] $ 6 <- 00000001
# 控制信号分析：
#   EX级控制：[WB:000 MA:0100 EX:0010]
#     写回控制 - RegDst:0 RegWrite:0 MemToReg:0
#     访存控制 - MemRead:0 MemWrite:1 Branch:0 Jump:0
#     ALU控制：0010
#   EX阶段数据：
#     RsE = 00000000, RtE = 0000000f, Imm32E = 00000000
#     ALU输入: A = 00000000, B = 00000000
#     ALU输出: 00000000
#     转发控制: ALUSrcA = 00, ALUSrcB = 11, MemSrc = 0
#   MEM级控制：[WB:010 MA:0000]
#     写回控制 - RegDst:0 RegWrite:1 MemToReg:0
#     访存控制 - MemRead:0 MemWrite:0 Branch:0 Jump:0
#   MEM阶段数据：
#     ALUOutM = 00000002, RtM = 00000000, MEMOutM = zzzzzzzz
#   WB级控制：[WB:010]
#     写回控制 - RegDst:0 RegWrite:1 MemToReg:0
#   WB阶段数据：
#     ALUOutW = 00000001, MEMOutW = zzzzzzzz
# 地址信息：
# pcplus4f=00000024,pcplus4d=00000020,pcplus4e=0000001c,mux_ma=00000000
# [周期         13详细分析]
#   [SW分析] 存储指令：rt=$ 3, 值应为：0000000f
#     当前RtE=0000000f, ALUSrcB=11
# --------------------------------------------------
# 
# === 时钟周期 14 @               145000 ns ===
# PC状态：
#   PC = 00000024, PCWr = 0, IF_ID_RegWr = 0
#   冒险控制：Clear0 = 1 (清ID控制), Clear1 = 0 (清EX控制)
# 流水线指令：
#   IF: 20060063 (opcode:08, rs:$ 0, rt:$ 6)
#   ID: 10650001 (opcode:04, rs:$ 3, rt:$ 5)
#   EX: 8c050000 (opcode:23, rs:$ 0, rt:$ 5)
#   MEM: ac030000 (opcode:2b, rs:$ 0, rt:$ 3)
#   WB: 20070002 (opcode:08, rs:$ 0, rt:$ 7)
# 写回阶段：
#   目标寄存器：$ 7, 数据：00000002
#   控制：RegWrite=1, MemtoReg=0, RegDst=0
#   [寄存器更新] $ 7 <- 00000002
#   [内存写入] 地址=00000000, 数据=?
# 控制信号分析：
#   EX级控制：[WB:011 MA:1000 EX:0010]
#     写回控制 - RegDst:0 RegWrite:1 MemToReg:1
#     访存控制 - MemRead:1 MemWrite:0 Branch:0 Jump:0
#     ALU控制：0010
#   EX阶段数据：
#     RsE = 00000000, RtE = 00000000, Imm32E = 00000000
#     ALU输入: A = 00000000, B = 00000000
#     ALU输出: 00000000
#     转发控制: ALUSrcA = 00, ALUSrcB = 11, MemSrc = 0
#   MEM级控制：[WB:000 MA:0100]
#     写回控制 - RegDst:0 RegWrite:0 MemToReg:0
#     访存控制 - MemRead:0 MemWrite:1 Branch:0 Jump:0
#   MEM阶段数据：
#     ALUOutM = 00000000, RtM = 0000000f, MEMOutM = zzzzzzzz
#   WB级控制：[WB:010]
#     写回控制 - RegDst:0 RegWrite:1 MemToReg:0
#   WB阶段数据：
#     ALUOutW = 00000002, MEMOutW = zzzzzzzz
# 地址信息：
# pcplus4f=00000028,pcplus4d=00000024,pcplus4e=00000020,mux_ma=00000000
# [周期         14详细分析]
#   [冒险控制] Clear0=1：正在清除ID阶段控制信号（插入气泡）
# --------------------------------------------------
# 
# === 时钟周期 15 @               155000 ns ===
# PC状态：
#   PC = 00000024, PCWr = 1, IF_ID_RegWr = 1
#   冒险控制：Clear0 = 0 (清ID控制), Clear1 = 0 (清EX控制)
# 流水线指令：
#   IF: 20060063 (opcode:08, rs:$ 0, rt:$ 6)
#   ID: 10650001 (opcode:04, rs:$ 3, rt:$ 5)
#   EX: 00000000 (opcode:00, rs:$ 0, rt:$ 0)
#   MEM: 8c050000 (opcode:23, rs:$ 0, rt:$ 5)
#   WB: ac030000 (opcode:2b, rs:$ 0, rt:$ 3)
# 写回阶段：
#   目标寄存器：$ 3, 数据：00000000
#   控制：RegWrite=0, MemtoReg=0, RegDst=0
# 控制信号分析：
#   EX级控制：[WB:000 MA:0000 EX:0000]
#     写回控制 - RegDst:0 RegWrite:0 MemToReg:0
#     访存控制 - MemRead:0 MemWrite:0 Branch:0 Jump:0
#     ALU控制：0000
#   EX阶段数据：
#     RsE = 00000000, RtE = 00000000, Imm32E = 00000000
#     ALU输入: A = 00000000, B = 00000000
#     ALU输出: 00000000
#     转发控制: ALUSrcA = 00, ALUSrcB = 00, MemSrc = 0
#   MEM级控制：[WB:011 MA:1000]
#     写回控制 - RegDst:0 RegWrite:1 MemToReg:1
#     访存控制 - MemRead:1 MemWrite:0 Branch:0 Jump:0
#   MEM阶段数据：
#     ALUOutM = 00000000, RtM = 00000000, MEMOutM = 0000000f
#   WB级控制：[WB:000]
#     写回控制 - RegDst:0 RegWrite:0 MemToReg:0
#   WB阶段数据：
#     ALUOutW = 00000000, MEMOutW = zzzzzzzz
# 地址信息：
# pcplus4f=00000028,pcplus4d=00000024,pcplus4e=00000000,mux_ma=00000000
# [周期         15详细分析]
# --------------------------------------------------
# 
# === 时钟周期 16 @               165000 ns ===
# PC状态：
#   PC = 00000028, PCWr = 1, IF_ID_RegWr = 1
#   冒险控制：Clear0 = 0 (清ID控制), Clear1 = 0 (清EX控制)
# 流水线指令：
#   IF: 0810000c (opcode:02, rs:$ 0, rt:$16)
#   ID: 20060063 (opcode:08, rs:$ 0, rt:$ 6)
#   EX: 10650001 (opcode:04, rs:$ 3, rt:$ 5)
#   MEM: 00000000 (opcode:00, rs:$ 0, rt:$ 0)
