multicycle/out/mips_test.vcd
$date
	Fri Dec 19 19:21:34 2025
$end
$version
	ModelSim Version 10.6c
$end
$timescale
	1ps
$end

$scope module mips_tb $end
$var reg 1 ! clk $end
$var reg 1 " rst $end
$var wire 1 # inst [31] $end
$var wire 1 $ inst [30] $end
$var wire 1 % inst [29] $end
$var wire 1 & inst [28] $end
$var wire 1 ' inst [27] $end
$var wire 1 ( inst [26] $end
$var wire 1 ) inst [25] $end
$var wire 1 * inst [24] $end
$var wire 1 + inst [23] $end
$var wire 1 , inst [22] $end
$var wire 1 - inst [21] $end
$var wire 1 . inst [20] $end
$var wire 1 / inst [19] $end
$var wire 1 0 inst [18] $end
$var wire 1 1 inst [17] $end
$var wire 1 2 inst [16] $end
$var wire 1 3 inst [15] $end
$var wire 1 4 inst [14] $end
$var wire 1 5 inst [13] $end
$var wire 1 6 inst [12] $end
$var wire 1 7 inst [11] $end
$var wire 1 8 inst [10] $end
$var wire 1 9 inst [9] $end
$var wire 1 : inst [8] $end
$var wire 1 ; inst [7] $end
$var wire 1 < inst [6] $end
$var wire 1 = inst [5] $end
$var wire 1 > inst [4] $end
$var wire 1 ? inst [3] $end
$var wire 1 @ inst [2] $end
$var wire 1 A inst [1] $end
$var wire 1 B inst [0] $end
$var wire 1 C addr [31] $end
$var wire 1 D addr [30] $end
$var wire 1 E addr [29] $end
$var wire 1 F addr [28] $end
$var wire 1 G addr [27] $end
$var wire 1 H addr [26] $end
$var wire 1 I addr [25] $end
$var wire 1 J addr [24] $end
$var wire 1 K addr [23] $end
$var wire 1 L addr [22] $end
$var wire 1 M addr [21] $end
$var wire 1 N addr [20] $end
$var wire 1 O addr [19] $end
$var wire 1 P addr [18] $end
$var wire 1 Q addr [17] $end
$var wire 1 R addr [16] $end
$var wire 1 S addr [15] $end
$var wire 1 T addr [14] $end
$var wire 1 U addr [13] $end
$var wire 1 V addr [12] $end
$var wire 1 W addr [11] $end
$var wire 1 X addr [10] $end
$var wire 1 Y addr [9] $end
$var wire 1 Z addr [8] $end
$var wire 1 [ addr [7] $end
$var wire 1 \ addr [6] $end
$var wire 1 ] addr [5] $end
$var wire 1 ^ addr [4] $end
$var wire 1 _ addr [3] $end
$var wire 1 ` addr [2] $end
$var wire 1 a addr [1] $end
$var wire 1 b addr [0] $end
$var wire 1 c alu_out [31] $end
$var wire 1 d alu_out [30] $end
$var wire 1 e alu_out [29] $end
$var wire 1 f alu_out [28] $end
$var wire 1 g alu_out [27] $end
$var wire 1 h alu_out [26] $end
$var wire 1 i alu_out [25] $end
$var wire 1 j alu_out [24] $end
$var wire 1 k alu_out [23] $end
$var wire 1 l alu_out [22] $end
$var wire 1 m alu_out [21] $end
$var wire 1 n alu_out [20] $end
$var wire 1 o alu_out [19] $end
$var wire 1 p alu_out [18] $end
$var wire 1 q alu_out [17] $end
$var wire 1 r alu_out [16] $end
$var wire 1 s alu_out [15] $end
$var wire 1 t alu_out [14] $end
$var wire 1 u alu_out [13] $end
$var wire 1 v alu_out [12] $end
$var wire 1 w alu_out [11] $end
$var wire 1 x alu_out [10] $end
$var wire 1 y alu_out [9] $end
$var wire 1 z alu_out [8] $end
$var wire 1 { alu_out [7] $end
$var wire 1 | alu_out [6] $end
$var wire 1 } alu_out [5] $end
$var wire 1 ~ alu_out [4] $end
$var wire 1 !! alu_out [3] $end
$var wire 1 "! alu_out [2] $end
$var wire 1 #! alu_out [1] $end
$var wire 1 $! alu_out [0] $end
$var wire 1 %! NS [3] $end
$var wire 1 &! NS [2] $end
$var wire 1 '! NS [1] $end
$var wire 1 (! NS [0] $end
$var wire 1 )! S [3] $end
$var wire 1 *! S [2] $end
$var wire 1 +! S [1] $end
$var wire 1 ,! S [0] $end
$var reg 32 -! inst_reg [31:0] $end
$var reg 32 .! addr_reg [31:0] $end
$var reg 32 /! alu_out_reg [31:0] $end
$var reg 4 0! NS_reg [3:0] $end
$var reg 4 1! S_reg [3:0] $end
$var integer 32 2! total_cycles $end
$var integer 32 3! inst_count $end
$var reg 32 4! last_inst [31:0] $end
$var integer 32 5! same_inst_count $end
$var reg 32 6! expected_jump_inst [31:0] $end
$upscope $end
$enddefinitions $end
#0
$dumpvars
0!
1"
b0 -!
b0 .!
b0 /!
b0 0!
b0 1!
b0 4!
b1000000100000000000000010111 6!
b0 2!
b0 3!
b0 5!
1B
0A
1@
0?
0>
0=
0<
0;
0:
09
08
07
06
05
04
03
02
01
00
1/
0.
0-
0,
0+
0*
0)
0(
0'
0&
1%
0$
0#
0b
0a
0`
0_
0^
0]
0\
0[
0Z
0Y
0X
0W
0V
0U
0T
0S
0R
0Q
0P
0O
0N
0M
0L
0K
0J
0I
0H
0G
0F
0E
0D
0C
x$!
x#!
x"!
x!!
x~
x}
x|
x{
xz
xy
xx
xw
xv
xu
xt
xs
xr
xq
xp
xo
xn
xm
xl
xk
xj
xi
xh
xg
xf
xe
xd
xc
1(!
0'!
0&!
0%!
0,!
0+!
0*!
0)!
$end
#5000
1!
b100000000010000000000000000101 -!
bx /!
b1 0!
0$!
0#!
1"!
0!!
0~
0}
0|
0{
0z
0y
0x
0w
0v
0u
0t
0s
0r
0q
0p
0o
0n
0m
0l
0k
0j
0i
0h
0g
0f
0e
0d
0c
#10000
0!
#15000
1!
b100 /!
#20000
0"
0!
#25000
1!
b1 2!
b1 3!
b100000000010000000000000000101 4!
1,!
0(!
1'!
1`
zB
zA
z@
z?
z>
z=
z<
z;
z:
z9
z8
z7
z6
z5
z4
z3
z2
z1
z0
z/
z.
z-
z,
z+
z*
z)
z(
z'
z&
z%
z$
z#
#30000
0!
#35000
1!
bz -!
b100 .!
b10 0!
b1 1!
b10 2!
0,!
1+!
0"!
1!!
1~
1(!
1%!
#40000
0!
#45000
1!
b11000 /!
b1011 0!
b10 1!
b11 2!
1,!
1)!
1$!
1"!
0!!
0~
0(!
0'!
0%!
#50000
0!
#55000
1!
b101 /!
b0 0!
b1011 1!
b100 2!
0,!
0+!
0)!
0$!
0"!
1!!
1(!
1B
1A
0@
0?
0>
0=
0<
0;
0:
09
08
07
06
05
04
03
12
01
00
1/
0.
0-
0,
0+
0*
0)
0(
0'
0&
1%
0$
0#
#60000
0!
#65000
1!
b100000000010010000000000000011 -!
b1000 /!
b1 0!
b0 1!
b101 2!
b10 3!
b100000000010010000000000000011 4!
1,!
0(!
1'!
0`
1_
zB
zA
z@
z?
z>
z=
z<
z;
z:
z9
z8
z7
z6
z5
z4
z3
z2
z1
z0
z/
z.
z-
z,
z+
z*
z)
z(
z'
z&
z%
z$
z#
#70000
0!
#75000
1!
bz -!
b1000 .!
b10 0!
b1 1!
b110 2!
0,!
1+!
1"!
0!!
1~
1(!
1%!
#80000
0!
#85000
1!
b10100 /!
b1011 0!
b10 1!
b111 2!
1,!
1)!
1$!
1#!
0"!
0~
0(!
0'!
0%!
#90000
0!
#95000
1!
b11 /!
b0 0!
b1011 1!
b1000 2!
0,!
0+!
0)!
0$!
0#!
1"!
1!!
1(!
0B
0A
0@
0?
0>
1=
0<
0;
0:
09
08
07
16
05
14
03
12
01
00
1/
0.
0-
0,
0+
1*
0)
0(
0'
0&
0%
0$
0#
#100000
0!
#105000
1!
b1000010010101000000100000 -!
b1100 /!
b1 0!
b0 1!
b1001 2!
b11 3!
b1000010010101000000100000 4!
1,!
0(!
1'!
1`
zB
zA
z@
z?
z>
z=
z<
z;
z:
z9
z8
z7
z6
z5
z4
z3
z2
z1
z0
z/
z.
z-
z,
z+
z*
z)
z(
z'
z&
z%
z$
z#
#110000
0!
#115000
1!
bz -!
b1100 .!
b10 0!
b1 1!
b1010 2!
0,!
1+!
1{
1t
1r
1(!
1&!
#120000
0!
#125000
1!
b10100000010001100 /!
b111 0!
b10 1!
b1011 2!
1,!
1*!
0"!
0{
0t
0r
0(!
0'!
0&!
#130000
0!
#135000
1!
b1000 /!
b0 0!
b111 1!
b1100 2!
0,!
0+!
0*!
0!!
1~
1(!
0B
1A
0@
0?
0>
1=
0<
0;
0:
09
08
17
16
05
14
03
12
01
00
1/
0.
0-
0,
0+
1*
0)
0(
0'
0&
0%
0$
0#
#140000
0!
#145000
1!
b1000010010101100000100010 -!
b10000 /!
b1 0!
b0 1!
b1101 2!
b100 3!
b1000010010101100000100010 4!
1,!
0(!
1'!
0`
0_
1^
zB
zA
z@
z?
z>
z=
z<
z;
z:
z9
z8
z7
z6
z5
z4
z3
z2
z1
z0
z/
z.
z-
z,
z+
z*
z)
z(
z'
z&
z%
z$
z#
#150000
0!
#155000
1!
bz -!
b10000 .!
b10 0!
b1 1!
b1110 2!
0,!
1+!
1!!
1{
1u
1t
1r
1(!
1&!
#160000
0!
#165000
1!
b10110000010011000 /!
b111 0!
b10 1!
b1111 2!
1,!
1*!
1#!
0!!
0~
0{
0u
0t
0r
0(!
0'!
0&!
#170000
0!
#175000
1!
b10 /!
b0 0!
b111 1!
b10000 2!
0,!
0+!
0*!
0#!
1"!
1~
1(!
0B
0A
1@
0?
0>
1=
0<
0;
0:
09
08
07
06
15
14
03
12
01
00
1/
0.
0-
0,
0+
1*
0)
0(
0'
0&
0%
0$
0#
#180000
0!
#185000
1!
b1000010010110000000100100 -!
b10100 /!
b1 0!
b0 1!
b10001 2!
b101 3!
b1000010010110000000100100 4!
1,!
0(!
1'!
1`
zB
zA
z@
z?
z>
z=
z<
z;
z:
z9
z8
z7
z6
z5
z4
z3
z2
z1
z0
z/
z.
z-
z,
z+
z*
z)
z(
z'
z&
z%
z$
z#
#190000
0!
#195000
1!
bz -!
b10100 .!
b10 0!
b1 1!
b10010 2!
0,!
1+!
0~
1}
1{
1s
1r
1(!
1&!
#200000
0!
#205000
1!
b11000000010100100 /!
b111 0!
b10 1!
b10011 2!
1,!
1*!
1$!
0"!
0}
0{
0s
0r
0(!
0'!
0&!
#210000
0!
#215000
1!
b1 /!
b0 0!
b111 1!
b10100 2!
0,!
0+!
0*!
0$!
1!!
1~
1(!
1B
0A
1@
0?
0>
1=
0<
0;
0:
09
08
17
06
15
14
03
12
01
00
1/
0.
0-
0,
0+
1*
0)
0(
0'
0&
0%
0$
0#
#220000
0!
#225000
1!
b1000010010110100000100101 -!
b11000 /!
b1 0!
b0 1!
b10101 2!
b110 3!
b1000010010110100000100101 4!
1,!
0(!
1'!
0`
1_
zB
zA
z@
z?
z>
z=
z<
z;
z:
z9
z8
z7
z6
z5
z4
z3
z2
z1
z0
z/
z.
z-
z,
z+
z*
z)
z(
z'
z&
z%
z$
z#
#230000
0!
#235000
1!
bz -!
b11000 .!
b10 0!
b1 1!
b10110 2!
0,!
1+!
1"!
0~
1}
1{
1u
1s
1r
1(!
1&!
#240000
0!
#245000
1!
b11010000010101100 /!
b111 0!
b10 1!
b10111 2!
1,!
1*!
1$!
1#!
0!!
0}
0{
0u
0s
0r
0(!
0'!
0&!
#250000
0!
#255000
1!
b111 /!
b0 0!
b111 1!
b11000 2!
0,!
0+!
0*!
0$!
0#!
1!!
1~
1(!
0B
1A
1@
0?
0>
1=
0<
0;
0:
09
08
07
16
15
14
03
12
01
00
1/
0.
0-
0,
0+
1*
0)
0(
0'
0&
0%
0$
0#
#260000
0!
#265000
1!
b1000010010111000000100110 -!
b11100 /!
b1 0!
b0 1!
b11001 2!
b111 3!
b1000010010111000000100110 4!
1,!
0(!
1'!
1`
zB
zA
z@
z?
z>
z=
z<
z;
z:
z9
z8
z7
z6
z5
z4
z3
z2
z1
z0
z/
z.
z-
z,
z+
z*
z)
z(
z'
z&
z%
z$
z#
#270000
0!
#275000
1!
bz -!
b11100 .!
b10 0!
b1 1!
b11010 2!
0,!
1+!
0!!
1}
1{
1t
1s
1r
1(!
1&!
#280000
0!
#285000
1!
b11100000010110100 /!
b111 0!
b10 1!
b11011 2!
1,!
1*!
1#!
0~
0}
0{
0t
0s
0r
0(!
0'!
0&!
#290000
0!
#295000
1!
b110 /!
b0 0!
b111 1!
b11100 2!
0,!
0+!
0*!
0#!
0"!
1}
1(!
1B
1A
1@
0?
0>
1=
0<
0;
0:
09
08
17
16
15
14
03
12
01
00
1/
0.
0-
0,
0+
1*
0)
0(
0'
0&
0%
0$
0#
#300000
0!
#305000
1!
b1000010010111100000100111 -!
b100000 /!
b1 0!
b0 1!
b11101 2!
b1000 3!
b1000010010111100000100111 4!
1,!
0(!
1'!
0`
0_
0^
1]
zB
zA
z@
z?
z>
z=
z<
z;
z:
z9
z8
z7
z6
z5
z4
z3
z2
z1
z0
z/
z.
z-
z,
z+
z*
z)
z(
z'
z&
z%
z$
z#
#310000
0!
#315000
1!
bz -!
b100000 .!
b10 0!
b1 1!
b11110 2!
0,!
1+!
1"!
1!!
1~
1{
1u
1t
1s
1r
1(!
1&!
#320000
0!
#325000
1!
b11110000010111100 /!
b111 0!
b10 1!
b11111 2!
1,!
1*!
0"!
1|
1z
1y
1x
1w
1v
1q
1p
1o
1n
1m
1l
1k
1j
1i
1h
1g
1f
1e
1d
1c
0(!
0'!
0&!
#330000
0!
#335000
1!
b11111111111111111111111111111000 /!
b0 0!
b111 1!
b100000 2!
0,!
0+!
0*!
1"!
0!!
0~
0|
0{
0z
0y
0x
0w
0v
0u
0t
0s
0r
0q
0p
0o
0n
0m
0l
0k
0j
0i
0h
0g
0f
0e
0d
0c
1(!
0B
1A
0@
1?
0>
1=
0<
0;
0:
09
08
07
06
05
14
13
02
01
00
1/
0.
1-
0,
0+
1*
0)
0(
0'
0&
0%
0$
0#
#340000
0!
#345000
1!
b1001010001100000000101010 -!
b100100 /!
b1 0!
b0 1!
b100001 2!
b1001 3!
b1001010001100000000101010 4!
1,!
0(!
1'!
1`
zB
zA
z@
z?
z>
z=
z<
z;
z:
z9
z8
z7
z6
z5
z4
z3
z2
z1
z0
z/
z.
z-
z,
z+
z*
z)
z(
z'
z&
z%
z$
z#
#350000
0!
#355000
1!
bz -!
b100100 .!
b10 0!
b1 1!
b100010 2!
0,!
1+!
1!!
0}
1|
1{
1r
1q
1p
1o
1n
1m
1l
1k
1j
1i
1h
1g
1f
1e
1d
1c
1(!
1&!
#360000
0!
#365000
1!
b11111111111111110000000011001100 /!
b111 0!
b10 1!
b100011 2!
1,!
1*!
1$!
0"!
0!!
0|
0{
0r
0q
0p
0o
0n
0m
0l
0k
0j
0i
0h
0g
0f
0e
0d
0c
0(!
0'!
0&!
#370000
0!
#375000
1!
b1 /!
b0 0!
b111 1!
b100100 2!
0,!
0+!
0*!
0$!
1!!
1}
1(!
1B
1A
1@
1?
1>
1=
1<
1;
0:
09
08
07
06
05
04
03
02
01
00
0/
1.
0-
0,
0+
0*
0)
0(
0'
0&
1%
0$
0#
#380000
0!
#385000
1!
b100000000100000000000011111111 -!
b101000 /!
b1 0!
b0 1!
b100101 2!
b1010 3!
b100000000100000000000011111111 4!
1,!
0(!
1'!
0`
1_
zB
zA
z@
z?
z>
z=
z<
z;
z:
z9
z8
z7
z6
z5
z4
z3
z2
z1
z0
z/
z.
z-
z,
z+
z*
z)
z(
z'
z&
z%
z$
z#
#390000
0!
#395000
1!
bz -!
b101000 .!
b10 0!
b1 1!
b100110 2!
0,!
1+!
1"!
0!!
1x
1(!
1%!
#400000
0!
#405000
1!
b10000100100 /!
b1011 0!
b10 1!
b100111 2!
1,!
1)!
1$!
1#!
1!!
1~
1|
1{
0x
0(!
0'!
0%!
#410000
0!
#415000
1!
b11111111 /!
b0 0!
b1011 1!
b101000 2!
0,!
0+!
0)!
0$!
0#!
0~
0|
0{
1(!
1B
1A
1@
1?
0>
0=
0<
0;
0:
09
08
07
06
05
04
03
12
01
00
0/
1.
0-
0,
0+
0*
1)
0(
0'
1&
1%
0$
0#
#420000
0!
#425000
1!
b110010000100010000000000001111 -!
b101100 /!
b1 0!
b0 1!
b101001 2!
b1011 3!
b110010000100010000000000001111 4!
1,!
0(!
1'!
1`
zB
zA
z@
z?
z>
z=
z<
z;
z:
z9
z8
z7
z6
z5
z4
z3
z2
z1
z0
z/
z.
z-
z,
z+
z*
z)
z(
z'
z&
z%
z$
z#
#430000
0!
#435000
1!
bz -!
b101100 .!
b10 0!
b1 1!
b101010 2!
0,!
1+!
0"!
1|
1(!
1%!
#440000
0!
#445000
1!
b1101000 /!
b1011 0!
b10 1!
b101011 2!
1,!
1)!
1$!
1#!
1"!
0}
0|
0(!
0'!
0%!
#450000
0!
#455000
1!
b1111 /!
b0 0!
b1011 1!
b101100 2!
0,!
0+!
0)!
0$!
0#!
0"!
0!!
1~
1}
1(!
0B
0A
0@
0?
1>
1=
1<
1;
0:
09
08
07
06
05
04
03
02
11
00
0/
1.
0-
0,
0+
0*
1)
1(
0'
1&
1%
0$
0#
#460000
0!
#465000
1!
b110110000100100000000011110000 -!
b110000 /!
b1 0!
b0 1!
b101101 2!
b1100 3!
b110110000100100000000011110000 4!
1,!
0(!
1'!
0`
0_
1^
zB
zA
z@
z?
z>
z=
z<
z;
z:
z9
z8
z7
z6
z5
z4
z3
z2
z1
z0
z/
z.
z-
z,
z+
z*
z)
z(
z'
z&
z%
z$
z#
#470000
0!
#475000
1!
bz -!
b110000 .!
b10 0!
b1 1!
b101110 2!
0,!
1+!
1|
1{
1z
1y
1(!
1%!
#480000
0!
#485000
1!
b1111110000 /!
b1011 0!
b10 1!
b101111 2!
1,!
1)!
1$!
1#!
1"!
1!!
0z
0y
0(!
0'!
0%!
#490000
0!
#495000
1!
b11111111 /!
b0 0!
b1011 1!
b110000 2!
0,!
0+!
0)!
0$!
0#!
0!!
0|
0{
1(!
0B
1A
0@
1?
0>
1=
0<
1;
0:
09
08
07
06
05
04
03
12
11
00
0/
1.
0-
0,
0+
0*
1)
0(
1'
1&
1%
0$
0#
#500000
0!
#505000
1!
b111010000100110000000010101010 -!
b110100 /!
b1 0!
b0 1!
b110001 2!
b1101 3!
b111010000100110000000010101010 4!
1,!
0(!
1'!
1`
zB
zA
z@
z?
z>
z=
z<
z;
z:
z9
z8
z7
z6
z5
z4
z3
z2
z1
z0
z/
z.
z-
z,
z+
z*
z)
z(
z'
z&
z%
z$
z#
#510000
0!
#515000
1!
bz -!
b110100 .!
b10 0!
b1 1!
b110010 2!
0,!
1+!
1!!
0}
1|
1{
1y
1(!
1%!
#520000
0!
#525000
1!
b1011011100 /!
b1011 0!
b10 1!
b110011 2!
1,!
1)!
1$!
0!!
0{
0y
0(!
0'!
0%!
#530000
0!
#535000
1!
b1010101 /!
b0 0!
b1011 1!
b110100 2!
0,!
0+!
0)!
0$!
0"!
1!!
1}
0|
1(!
0B
0A
0@
0?
0>
0=
0<
0;
0:
09
08
07
06
05
04
03
02
01
00
1/
0.
0-
0,
0+
0*
0)
1(
1'
0&
1%
0$
1#
#540000
0!
#545000
1!
b10101100000010000000000000000000 -!
b111000 /!
b1 0!
b0 1!
b110101 2!
b1110 3!
b10101100000010000000000000000000 4!
1,!
0(!
1'!
0`
1_
zB
zA
z@
z?
z>
z=
z<
z;
z:
z9
z8
z7
z6
z5
z4
z3
z2
z1
z0
z/
z.
z-
z,
z+
z*
z)
z(
z'
z&
z%
z$
z#
#550000
0!
#555000
1!
bz -!
b111000 .!
b10 0!
b1 1!
b110110 2!
0,!
1+!
1(!
#560000
0!
#565000
1!
b11 0!
b10 1!
b110111 2!
1,!
0!!
0~
0}
0'!
1%!
0_
0^
0]
#570000
0!
#575000
1!
b0 .!
b0 /!
b1001 0!
b11 1!
b111000 2!
0+!
1)!
1"!
1!!
1~
1}
0(!
0%!
1`
1_
1^
1]
0`
#580000
0!
#585000
1!
b111000 .!
b111100 /!
b0 0!
b1001 1!
b111001 2!
0,!
0)!
1(!
0B
0A
0@
0?
0>
0=
0<
0;
0:
09
08
07
06
05
04
03
02
01
10
0/
1.
0-
0,
0+
0*
0)
1(
1'
0&
0%
0$
1#
#590000
0!
#595000
1!
b10001100000101000000000000000000 -!
b1 0!
b0 1!
b111010 2!
b1111 3!
b10001100000101000000000000000000 4!
1,!
0(!
1'!
1`
zB
zA
z@
z?
z>
z=
z<
z;
z:
z9
z8
z7
z6
z5
z4
z3
z2
z1
z0
z/
z.
z-
z,
z+
z*
z)
z(
z'
z&
z%
z$
z#
#600000
0!
#605000
1!
bz -!
b111100 .!
b10 0!
b1 1!
b111011 2!
0,!
1+!
1(!
#610000
0!
#615000
1!
b11 0!
b10 1!
b111100 2!
1,!
0"!
0!!
0~
0}
0(!
0'!
1%!
1B
0A
0@
0?
0>
0=
0<
0;
0:
09
08
07
06
05
04
03
02
11
00
1/
1.
0-
0,
0+
0*
0)
0(
0'
0&
1%
0$
0#
0`
0_
0^
0]
1@
01
0.
#620000
0!
#625000
1!
b100000000010000000000000000101 -!
b0 .!
b0 /!
b1000 0!
b11 1!
b111101 2!
b10000 3!
b100000000010000000000000000101 4!
0,!
0+!
1)!
1|
1&!
0%!
1\
zB
zA
z@
z?
z>
z=
z<
z;
z:
z9
z8
z7
z6
z5
z4
z3
z2
z1
z0
z/
z.
z-
z,
z+
z*
z)
z(
z'
z&
z%
z$
z#
1`
1_
1^
1]
0\
#630000
0!
#635000
1!
bz -!
b111100 .!
b1000000 /!
b100 0!
b1000 1!
b111110 2!
1*!
0)!
0&!
#640000
0!
#645000
1!
b0 0!
b100 1!
b111111 2!
0*!
1(!
1B
0A
0@
0?
0>
0=
0<
0;
0:
09
08
07
06
05
04
03
02
11
00
1/
1.
0-
0,
0+
0*
0)
0(
0'
0&
1%
0$
0#
#650000
0!
#655000
1!
b100000000110100000000000000001 -!
b1 0!
b0 1!
b1000000 2!
b10001 3!
b100000000110100000000000000001 4!
1,!
0(!
1'!
0`
0_
0^
0]
1\
zB
zA
z@
z?
z>
z=
z<
z;
z:
z9
z8
z7
z6
z5
z4
z3
z2
z1
z0
z/
z.
z-
z,
z+
z*
z)
z(
z'
z&
z%
z$
z#
#660000
0!
#665000
1!
bz -!
b1000000 .!
b10 0!
b1 1!
b1000001 2!
0,!
1+!
1"!
1(!
1%!
#670000
0!
#675000
1!
b1000100 /!
b1011 0!
b10 1!
b1000010 2!
1,!
1)!
1$!
0"!
0|
0(!
0'!
0%!
#680000
0!
#685000
1!
b1 /!
b0 0!
b1011 1!
b1000011 2!
0,!
0+!
0)!
0$!
1"!
1|
1(!
1B
1A
0@
0?
0>
0=
0<
0;
0:
09
08
07
06
05
04
03
02
11
00
1/
1.
0-
1,
0+
1*
1)
0(
0'
1&
0%
0$
0#
#690000
0!
#695000
1!
b10011010110100000000000000011 -!
b1000100 /!
b1 0!
b0 1!
b1000100 2!
b10010 3!
b10011010110100000000000000011 4!
1,!
0(!
1'!
1&!
1`
zB
zA
z@
z?
z>
z=
z<
z;
z:
z9
z8
z7
z6
z5
z4
z3
z2
z1
z0
z/
z.
z-
z,
z+
z*
z)
z(
z'
z&
z%
z$
z#
#700000
0!
#705000
1!
bz -!
b1000100 .!
b110 0!
b1 1!
b1000101 2!
0,!
1+!
1*!
0"!
1~
0'!
0&!
#710000
0!
#715000
1!
b1010000 /!
b0 0!
b110 1!
b1000110 2!
0+!
0*!
0~
0|
1(!
0`
1^
0B
0A
1@
1?
0>
0=
0<
0;
0:
09
08
07
06
05
04
03
02
11
00
1/
1.
0-
0,
0+
0*
0)
1(
1'
0&
1%
0$
1#
#720000
0!
#725000
1!
b10101100000110100000000000001100 -!
b1010000 .!
b0 /!
b1 0!
b0 1!
b1000111 2!
b10011 3!
b10101100000110100000000000001100 4!
1,!
1"!
1~
1|
0(!
1'!
1`
zB
zA
z@
z?
z>
z=
z<
z;
z:
z9
z8
z7
z6
z5
z4
z3
z2
z1
z0
z/
z.
z-
z,
z+
z*
z)
z(
z'
z&
z%
z$
z#
#730000
0!
#735000
1!
bz -!
b1010100 .!
b1010100 /!
b10 0!
b1 1!
b1001000 2!
0,!
1+!
0~
0|
1{
1(!
#740000
0!
#745000
1!
b10000100 /!
b11 0!
b10 1!
b1001001 2!
1,!
1!!
0{
0'!
1%!
1_
0^
0\
#750000
0!
#755000
1!
b1100 .!
b1100 /!
b1001 0!
b11 1!
b1001010 2!
0+!
1)!
0"!
1~
1|
0(!
0%!
0`
1^
1\
1`
0_
#760000
0!
#765000
1!
b1010100 .!
b1011000 /!
b0 0!
b1001 1!
b1001011 2!
0,!
0)!
1(!
1B
1A
1@
0?
1>
0=
0<
0;
0:
09
08
07
06
05
04
03
02
01
00
0/
1.
0-
0,
0+
0*
0)
0(
1'
0&
0%
0$
0#
#770000
0!
#775000
1!
b1000000100000000000000010111 -!
b1 0!
b0 1!
b1001100 2!
b10100 3!
b1000000100000000000000010111 4!
1,!
1&!
0`
1_
zB
zA
z@
z?
z>
z=
z<
z;
z:
z9
z8
z7
z6
z5
z4
z3
z2
z1
z0
z/
z.
z-
z,
z+
z*
z)
z(
z'
z&
z%
z$
z#
#780000
0!
#785000
1!
bz -!
b1011000 .!
b101 0!
b1 1!
b1001101 2!
1*!
1"!
0!!
1}
0|
1{
0(!
0&!
#790000
0!
#795000
1!
b10110100 /!
b0 0!
b101 1!
b1001110 2!
0,!
0*!
1!!
0}
1|
0{
1(!
1`
1L
1B
1A
1@
0?
1>
0=
0<
0;
0:
09
08
07
06
05
04
03
02
01
00
0/
1.
0-
0,
0+
0*
0)
0(
1'
0&
0%
0$
0#
#800000
0!
#805000
1!
b1000000100000000000000010111 -!
b10000000000000001011100 .!
b1011100 /!
b1 0!
b0 1!
b1001111 2!
b10101 3!
b1 5!
1,!
0"!
0!!
0~
1}
1l
1&!
0`
0_
0^
1]
zB
zA
z@
z?
z>
z=
z<
z;
z:
z9
z8
z7
z6
z5
z4
z3
z2
z1
z0
z/
z.
z-
z,
z+
z*
z)
z(
z'
z&
z%
z$
z#
#810000
0!
#815000
1!
bz -!
b10000000000000001100000 .!
b10000000000000001100000 /!
b101 0!
b1 1!
b1010000 2!
1*!
1"!
1!!
1~
0|
1{
0(!
0&!
#820000
0!
#825000
1!
b10000000000000010111100 /!
b0 0!
b101 1!
b1010001 2!
0,!
0*!
0!!
0~
1|
0{
1(!
1`
1_
1^
0]
1B
1A
1@
0?
1>
0=
0<
0;
0:
09
08
07
06
05
04
03
02
01
00
0/
1.
0-
0,
0+
0*
0)
0(
1'
0&
0%
0$
0#
#830000
0!
#835000
1!
b1000000100000000000000010111 -!
b10000000000000001011100 .!
b10000000000000001100100 /!
b1 0!
b0 1!
b1010010 2!
b10110 3!
b10 5!
1,!
0"!
1&!
0`
0_
0^
1]
zB
zA
z@
z?
z>
z=
z<
z;
z:
z9
z8
z7
z6
z5
z4
z3
z2
z1
z0
z/
z.
z-
z,
z+
z*
z)
z(
z'
z&
z%
z$
z#
#840000
0!
#845000
1!
bz -!
b10000000000000001100000 .!
b10000000000000001100000 /!
b101 0!
b1 1!
b1010011 2!
1*!
1"!
1!!
1~
0|
1{
0(!
0&!
#850000
0!
#855000
1!
b10000000000000010111100 /!
b0 0!
b101 1!
b1010100 2!
0,!
0*!
0!!
0~
1|
0{
1(!
1`
1_
1^
0]
1B
1A
1@
0?
1>
0=
0<
0;
0:
09
08
07
06
05
04
03
02
01
00
0/
1.
0-
0,
0+
0*
0)
0(
1'
0&
0%
0$
0#
#860000
0!
#865000
1!
b1000000100000000000000010111 -!
b10000000000000001011100 .!
b10000000000000001100100 /!
b1 0!
b0 1!
b1010101 2!
b10111 3!
b11 5!
1,!
0"!
1&!
0`
0_
0^
1]
zB
zA
z@
z?
z>
z=
z<
z;
z:
z9
z8
z7
z6
z5
z4
z3
z2
z1
z0
z/
z.
z-
z,
z+
z*
z)
z(
z'
z&
z%
z$
z#
#870000
0!
#875000
1!
bz -!
b10000000000000001100000 .!
b10000000000000001100000 /!
b101 0!
b1 1!
b1010110 2!
1*!
1"!
1!!
1~
0|
1{
0(!
0&!
#880000
0!
#885000
1!
b10000000000000010111100 /!
b0 0!
b101 1!
b1010111 2!
0,!
0*!
0!!
0~
1|
0{
1(!
1`
1_
1^
0]
1B
1A
1@
0?
1>
0=
0<
0;
0:
09
08
07
06
05
04
03
02
01
00
0/
1.
0-
0,
0+
0*
0)
0(
1'
0&
0%
0$
0#
#890000
0!
#895000
1!
b1000000100000000000000010111 -!
b10000000000000001011100 .!
b10000000000000001100100 /!
b1 0!
b0 1!
b1011000 2!
b11000 3!
b100 5!
1,!
0"!
1&!
0`
0_
0^
1]
zB
zA
z@
z?
z>
z=
z<
z;
z:
z9
z8
z7
z6
z5
z4
z3
z2
z1
z0
z/
z.
z-
z,
z+
z*
z)
z(
z'
z&
z%
z$
z#
#900000
0!
#905000
1!
bz -!
b10000000000000001100000 .!
b10000000000000001100000 /!
b101 0!
b1 1!
b1011001 2!
1*!
1"!
1!!
1~
0|
1{
0(!
0&!
#910000
0!
#915000
1!
b10000000000000010111100 /!
b0 0!
b101 1!
b1011010 2!
0,!
0*!
0!!
0~
1|
0{
1(!
1`
1_
1^
0]
1B
1A
1@
0?
1>
0=
0<
0;
0:
09
08
07
06
05
04
03
02
01
00
0/
1.
0-
0,
0+
0*
0)
0(
1'
0&
0%
0$
0#
#920000
0!
#925000
1!
b1000000100000000000000010111 -!
b10000000000000001011100 .!
b10000000000000001100100 /!
b1 0!
b0 1!
b1011011 2!
b11001 3!
b101 5!
1,!
0"!
1&!
0`
0_
0^
1]
zB
zA
z@
z?
z>
z=
z<
z;
z:
z9
z8
z7
z6
z5
z4
z3
z2
z1
z0
z/
z.
z-
z,
z+
z*
z)
z(
z'
z&
z%
z$
z#
#930000
0!
#935000
1!
bz -!
b10000000000000001100000 .!
b10000000000000001100000 /!
b101 0!
b1 1!
b1011100 2!
1*!
1"!
1!!
1~
0|
1{
0(!
0&!
#940000
0!
